pro1_pdb,pro1_tamano,pro2_pdb,pro2_tamano
4BSX.pdb,10053,1RQP.pdb,15732
4BSX.pdb,10053,7BER.pdb,1449
4BSX.pdb,10053,7NT7.pdb,54478
4BSX.pdb,10053,4C7M.pdb,4536
4BSX.pdb,10053,3DGC.pdb,6450
1RQP.pdb,15732,7BER.pdb,1449
1RQP.pdb,15732,7NT7.pdb,54478
1RQP.pdb,15732,4C7M.pdb,4536
1RQP.pdb,15732,3DGC.pdb,6450
7BER.pdb,1449,7NT7.pdb,54478
7BER.pdb,1449,4C7M.pdb,4536
7BER.pdb,1449,3DGC.pdb,6450
7NT7.pdb,54478,4C7M.pdb,4536
7NT7.pdb,54478,3DGC.pdb,6450
4C7M.pdb,4536,3DGC.pdb,6450
