Abstract,Clasificacion
"in this mutant, expression of the spoiig gene, whose transcription depends on both sigma(a) and the phosphorylated spo0a protein, spo0a~p, a major transcription factor during early stages of sporulation, was greatly reduced at 43 degrees c.",0
"in this mutant, expression of the spoiig gene, whose transcription depends on both sigma(a) and the phosphorylated spo0a protein, spo0a~p, a major transcription factor during early stages of sporulation, was greatly reduced at 43 degrees c.",1
"in this mutant, expression of the spoiig gene, whose transcription depends on both sigma(a) and the phosphorylated spo0a protein, spo0a~p, a major transcription factor during early stages of sporulation, was greatly reduced at 43 degrees c.",1
"transcription of ydhd was dependent on sige, and the mrna was detectable from 2 h after the cessation of logarithmic growth (t2 of sporulation).",1
"both sigk and gere were essential for ykvp expression, and this gene was transcribed from t5 of sporulation.",1
"both sigk and gere were essential for ykvp expression, and this gene was transcribed from t5 of sporulation.",0
"both sigk and gere were essential for ykvp expression, and this gene was transcribed from t5 of sporulation.",1
"analysis of the expression of a translational ywhe-lacz fusion showed that ywhe expression is sporulation-specific, and is controlled predominantly by the forespore-specific sigma factor sigma(f), and to a lesser extent by sigma(g).",1
"analysis of the expression of a translational ywhe-lacz fusion showed that ywhe expression is sporulation-specific, and is controlled predominantly by the forespore-specific sigma factor sigma(f), and to a lesser extent by sigma(g).",0
"analysis of the expression of a translational ywhe-lacz fusion showed that ywhe expression is sporulation-specific, and is controlled predominantly by the forespore-specific sigma factor sigma(f), and to a lesser extent by sigma(g).",1
localization of spoiie was shown to be dependent on the essential cell division protein ftsz.,1
"in the shaa mutant, sigma(h)-dependent expression of spo0a and spovg at an early stage of sporulation was sensitive to external nacl.",1
"in the shaa mutant, sigma(h)-dependent expression of spo0a and spovg at an early stage of sporulation was sensitive to external nacl.",1
"in the shaa mutant, sigma(h)-dependent expression of spo0a and spovg at an early stage of sporulation was sensitive to external nacl.",0
"our results indicate that the level of katx level in outgrowing spores depends mainly on esigmaf, because sigb mutants show normal katx activity in dormant and outgrowing spores.",1
"we demonstrated that katx is also a sigmab-dependent general stress gene, since it is strongly induced by heat, salt and ethanol stress, as well as by energy depletion.",1
"taken together, the results support the idea that sequestration of spoiie protein into the prespore plays an important role in the control of sigmaf activation and in coupling this activation to septation.",1
"sigmaf is controlled by a regulatory cascade involving an anti-sigma factor, spoiiab, an anti-anti-sigma factor, spoiiaa, and a membrane-bound phosphatase, spoiie, which converts the inactive, phosphorylated form of spoiiaa back to the active form.",0
"sigmaf is controlled by a regulatory cascade involving an anti-sigma factor, spoiiab, an anti-anti-sigma factor, spoiiaa, and a membrane-bound phosphatase, spoiie, which converts the inactive, phosphorylated form of spoiiaa back to the active form.",0
"sigmaf is controlled by a regulatory cascade involving an anti-sigma factor, spoiiab, an anti-anti-sigma factor, spoiiaa, and a membrane-bound phosphatase, spoiie, which converts the inactive, phosphorylated form of spoiiaa back to the active form.",1
"sigmaf is controlled by a regulatory cascade involving an anti-sigma factor, spoiiab, an anti-anti-sigma factor, spoiiaa, and a membrane-bound phosphatase, spoiie, which converts the inactive, phosphorylated form of spoiiaa back to the active form.",0
"sigmaf is controlled by a regulatory cascade involving an anti-sigma factor, spoiiab, an anti-anti-sigma factor, spoiiaa, and a membrane-bound phosphatase, spoiie, which converts the inactive, phosphorylated form of spoiiaa back to the active form.",0
"sigmaf is controlled by a regulatory cascade involving an anti-sigma factor, spoiiab, an anti-anti-sigma factor, spoiiaa, and a membrane-bound phosphatase, spoiie, which converts the inactive, phosphorylated form of spoiiaa back to the active form.",1
"sigmaf is controlled by a regulatory cascade involving an anti-sigma factor, spoiiab, an anti-anti-sigma factor, spoiiaa, and a membrane-bound phosphatase, spoiie, which converts the inactive, phosphorylated form of spoiiaa back to the active form.",0
"sigmaf is controlled by a regulatory cascade involving an anti-sigma factor, spoiiab, an anti-anti-sigma factor, spoiiaa, and a membrane-bound phosphatase, spoiie, which converts the inactive, phosphorylated form of spoiiaa back to the active form.",0
"sigmaf is controlled by a regulatory cascade involving an anti-sigma factor, spoiiab, an anti-anti-sigma factor, spoiiaa, and a membrane-bound phosphatase, spoiie, which converts the inactive, phosphorylated form of spoiiaa back to the active form.",1
"sigmaf is controlled by a regulatory cascade involving an anti-sigma factor, spoiiab, an anti-anti-sigma factor, spoiiaa, and a membrane-bound phosphatase, spoiie, which converts the inactive, phosphorylated form of spoiiaa back to the active form.",1
"the first stage, which involves the phosphatase function of spoiie, depends on the cell division protein ftsz and could correspond to the ftsz-dependent assembly of spoiie into e-rings.",0
"the first stage, which involves the phosphatase function of spoiie, depends on the cell division protein ftsz and could correspond to the ftsz-dependent assembly of spoiie into e-rings.",0
"the first stage, which involves the phosphatase function of spoiie, depends on the cell division protein ftsz and could correspond to the ftsz-dependent assembly of spoiie into e-rings.",1
"the first stage, which involves the phosphatase function of spoiie, depends on the cell division protein ftsz and could correspond to the ftsz-dependent assembly of spoiie into e-rings.",1
"the first stage, which involves the phosphatase function of spoiie, depends on the cell division protein ftsz and could correspond to the ftsz-dependent assembly of spoiie into e-rings.",0
"the first stage, which involves the phosphatase function of spoiie, depends on the cell division protein ftsz and could correspond to the ftsz-dependent assembly of spoiie into e-rings.",0
evidence based on the use of modified and mutant forms of the phosphatase protein indicates that spoiie blocks the capacity of unphosphorylated spoiiaa to activate sigmaf until formation of the polar septum is completed.,1
evidence based on the use of modified and mutant forms of the phosphatase protein indicates that spoiie blocks the capacity of unphosphorylated spoiiaa to activate sigmaf until formation of the polar septum is completed.,1
evidence based on the use of modified and mutant forms of the phosphatase protein indicates that spoiie blocks the capacity of unphosphorylated spoiiaa to activate sigmaf until formation of the polar septum is completed.,0
cell-specific activation of transcription factor sigmaf during sporulation in bacillus subtilis requires the formation of the polar septum and the activity of a serine phosphatase (spoiie) located in the septum.,1
the spoiie phosphatase indirectly activates sigmaf by dephosphorylating a protein (spoiiaa-p) in the pathway that controls the activity of the transcription factor.,1
the spoiie phosphatase indirectly activates sigmaf by dephosphorylating a protein (spoiiaa-p) in the pathway that controls the activity of the transcription factor.,1
the spoiie phosphatase indirectly activates sigmaf by dephosphorylating a protein (spoiiaa-p) in the pathway that controls the activity of the transcription factor.,1
(i) the finding that the bmrur operon is under sigmab control indicates that the elimination of multidrug compounds might be a new function in multiple stress resistance.,1
"the ydap gene might belong to the increasing number of sigmab-dependent genes whose orthologues are under the control of sigmas in escherichia coli, indicating that both regulons may fulfil similar functions.",1
"cell specificity is first established in the forespore under the control of the sigma f factor, which is itself activated through the action of the spoiie serine phosphatase, an enzyme targeted to the septum between the two cells.",1
"a low level of gere activated transcription of cotd by sigmak rna polymerase in vitro, but a higher level of gere repressed cotd transcription.",1
"a low level of gere activated transcription of cotd by sigmak rna polymerase in vitro, but a higher level of gere repressed cotd transcription.",0
"a low level of gere activated transcription of cotd by sigmak rna polymerase in vitro, but a higher level of gere repressed cotd transcription.",0
"a low level of gere activated transcription of cotd by sigmak rna polymerase in vitro, but a higher level of gere repressed cotd transcription.",1
"a low level of gere activated transcription of cotd by sigmak rna polymerase in vitro, but a higher level of gere repressed cotd transcription.",0
"a low level of gere activated transcription of cotd by sigmak rna polymerase in vitro, but a higher level of gere repressed cotd transcription.",0
"a low level of gere activated transcription of cotd by sigmak rna polymerase in vitro, but a higher level of gere repressed cotd transcription.",1
"a low level of gere activated transcription of cotd by sigmak rna polymerase in vitro, but a higher level of gere repressed cotd transcription.",1
"a low level of gere activated transcription of cotd by sigmak rna polymerase in vitro, but a higher level of gere repressed cotd transcription.",0
"a low level of gere activated transcription of cotd by sigmak rna polymerase in vitro, but a higher level of gere repressed cotd transcription.",0
"in contrast, sspj is transcribed in the forespore compartment by rna polymerase with the forespore-specific sigmag and appears to give a monocistronic transcript.",1
"comk negatively controls the transcription of hag by stimulating the transcription of comf-flgm, thereby increasing the production of the flgm antisigma factor that inhibits sigmad activity.",1
"comk negatively controls the transcription of hag by stimulating the transcription of comf-flgm, thereby increasing the production of the flgm antisigma factor that inhibits sigmad activity.",1
"comk negatively controls the transcription of hag by stimulating the transcription of comf-flgm, thereby increasing the production of the flgm antisigma factor that inhibits sigmad activity.",0
"comk negatively controls the transcription of hag by stimulating the transcription of comf-flgm, thereby increasing the production of the flgm antisigma factor that inhibits sigmad activity.",1
"comk negatively controls the transcription of hag by stimulating the transcription of comf-flgm, thereby increasing the production of the flgm antisigma factor that inhibits sigmad activity.",1
"comk negatively controls the transcription of hag by stimulating the transcription of comf-flgm, thereby increasing the production of the flgm antisigma factor that inhibits sigmad activity.",0
"comk negatively controls the transcription of hag by stimulating the transcription of comf-flgm, thereby increasing the production of the flgm antisigma factor that inhibits sigmad activity.",0
"comk negatively controls the transcription of hag by stimulating the transcription of comf-flgm, thereby increasing the production of the flgm antisigma factor that inhibits sigmad activity.",0
"comk negatively controls the transcription of hag by stimulating the transcription of comf-flgm, thereby increasing the production of the flgm antisigma factor that inhibits sigmad activity.",0
"comk negatively controls the transcription of hag by stimulating the transcription of comf-flgm, thereby increasing the production of the flgm antisigma factor that inhibits sigmad activity.",0
"comk negatively controls the transcription of hag by stimulating the transcription of comf-flgm, thereby increasing the production of the flgm antisigma factor that inhibits sigmad activity.",0
"comk negatively controls the transcription of hag by stimulating the transcription of comf-flgm, thereby increasing the production of the flgm antisigma factor that inhibits sigmad activity.",0
"comk negatively controls the transcription of hag by stimulating the transcription of comf-flgm, thereby increasing the production of the flgm antisigma factor that inhibits sigmad activity.",0
"comk negatively controls the transcription of hag by stimulating the transcription of comf-flgm, thereby increasing the production of the flgm antisigma factor that inhibits sigmad activity.",1
"comk negatively controls the transcription of hag by stimulating the transcription of comf-flgm, thereby increasing the production of the flgm antisigma factor that inhibits sigmad activity.",0
"this stress-induced increase in ykza expression is absolutely dependent on the alternative sigma factor sigmab, which controls a large stationary-phase and stress regulon.",1
"transcriptional studies showed that nade is strongly induced in response to heat, ethanol and salt stress or after starvation for glucose in a sigma b-dependent manner.",1
"furthermore, ytxh and yvyd seemed to be induced after phosphate starvation in the wild type in a sigma(b)-dependent manner and in the sigb mutant probably via sigma(h).",1
"furthermore, ytxh and yvyd seemed to be induced after phosphate starvation in the wild type in a sigma(b)-dependent manner and in the sigb mutant probably via sigma(h).",1
"furthermore, ytxh and yvyd seemed to be induced after phosphate starvation in the wild type in a sigma(b)-dependent manner and in the sigb mutant probably via sigma(h).",0
"furthermore, ytxh and yvyd seemed to be induced after phosphate starvation in the wild type in a sigma(b)-dependent manner and in the sigb mutant probably via sigma(h).",0
"furthermore, ytxh and yvyd seemed to be induced after phosphate starvation in the wild type in a sigma(b)-dependent manner and in the sigb mutant probably via sigma(h).",1
"furthermore, ytxh and yvyd seemed to be induced after phosphate starvation in the wild type in a sigma(b)-dependent manner and in the sigb mutant probably via sigma(h).",1
"the expression of the bkd operon was induced by the presence of isoleucine or valine in the growth medium and depended upon the presence of the sigma factor sigl, a member of the sigma 54 family.",1
"transcription of the cotb, cotc, and cotx genes by final sigma(k) rna polymerase is activated by a small, dna-binding protein called gere.",0
"transcription of the cotb, cotc, and cotx genes by final sigma(k) rna polymerase is activated by a small, dna-binding protein called gere.",1
"transcription of the cotb, cotc, and cotx genes by final sigma(k) rna polymerase is activated by a small, dna-binding protein called gere.",1
"transcription of the cotb, cotc, and cotx genes by final sigma(k) rna polymerase is activated by a small, dna-binding protein called gere.",1
"transcription of the cotb, cotc, and cotx genes by final sigma(k) rna polymerase is activated by a small, dna-binding protein called gere.",1
"transcription of the cotb, cotc, and cotx genes by final sigma(k) rna polymerase is activated by a small, dna-binding protein called gere.",1
"transcription of the cotb, cotc, and cotx genes by final sigma(k) rna polymerase is activated by a small, dna-binding protein called gere.",1
"transcription of the cotb, cotc, and cotx genes by final sigma(k) rna polymerase is activated by a small, dna-binding protein called gere.",0
"transcription of the cotb, cotc, and cotx genes by final sigma(k) rna polymerase is activated by a small, dna-binding protein called gere.",0
"transcription of the cotb, cotc, and cotx genes by final sigma(k) rna polymerase is activated by a small, dna-binding protein called gere.",0
"in vitro transcription experiments suggest that the differential pattern of cot gene expression results from the combined action of gere and another transcription factor, spoiiid.",0
"in vitro transcription experiments suggest that the differential pattern of cot gene expression results from the combined action of gere and another transcription factor, spoiiid.",1
"in vitro transcription experiments suggest that the differential pattern of cot gene expression results from the combined action of gere and another transcription factor, spoiiid.",1
"transcriptional studies demonstrated that the expression from the arae promoter is induced by l-arabinose, repressed by glucose, and negatively regulated by arar.",1
"the sigmab-dependent promoter drives expression of yvyd under stress conditions and after glucose starvation, whereas a sigmah-dependent promoter is responsible for yvyd transcription following amino acid limitation.",1
"the sigmab-dependent promoter drives expression of yvyd under stress conditions and after glucose starvation, whereas a sigmah-dependent promoter is responsible for yvyd transcription following amino acid limitation.",0
"the sigmab-dependent promoter drives expression of yvyd under stress conditions and after glucose starvation, whereas a sigmah-dependent promoter is responsible for yvyd transcription following amino acid limitation.",0
"the sigmab-dependent promoter drives expression of yvyd under stress conditions and after glucose starvation, whereas a sigmah-dependent promoter is responsible for yvyd transcription following amino acid limitation.",0
"the sigmab-dependent promoter drives expression of yvyd under stress conditions and after glucose starvation, whereas a sigmah-dependent promoter is responsible for yvyd transcription following amino acid limitation.",0
"the sigmab-dependent promoter drives expression of yvyd under stress conditions and after glucose starvation, whereas a sigmah-dependent promoter is responsible for yvyd transcription following amino acid limitation.",1
"this indicates that the yvyd gene product, being a member of both the sigmab and sigmah regulons, might negatively regulate the activity of the sigmal regulon.",0
"this indicates that the yvyd gene product, being a member of both the sigmab and sigmah regulons, might negatively regulate the activity of the sigmal regulon.",0
"this indicates that the yvyd gene product, being a member of both the sigmab and sigmah regulons, might negatively regulate the activity of the sigmal regulon.",1
"this indicates that the yvyd gene product, being a member of both the sigmab and sigmah regulons, might negatively regulate the activity of the sigmal regulon.",0
"this indicates that the yvyd gene product, being a member of both the sigmab and sigmah regulons, might negatively regulate the activity of the sigmal regulon.",1
"this indicates that the yvyd gene product, being a member of both the sigmab and sigmah regulons, might negatively regulate the activity of the sigmal regulon.",1
"in addition to the typical sigmab-dependent, stress- and starvation-inducible pattern, yvyd is also induced in response to amino acid depletion.",1
"although spo0h is transcriptionally regulated by the key regulatory device that controls sporulation initiation, the spo0 phosphorelay, there is considerable evidence implicating a mechanism of post-translational control that governs the activity and concentration of sigmah.",1
"the class includes asia form bacteriophage t4, which inhibits escherichia coli sigma 70; flgm, present in both gram-positive and gram-negative bacteria, which inhibits the flagella sigma factor sigma 28; spoiiab, which inhibits the sporulation-specific sigma factor, sigma f and sigma g, of bacillus subtilis; rbsw of b. subtilis, which inhibits stress response sigma factor sigma b; and dnak, a general regulator of the heat shock response, which in bacteria inhibits the heat shock sigma factor sigma 32.",0
"the class includes asia form bacteriophage t4, which inhibits escherichia coli sigma 70; flgm, present in both gram-positive and gram-negative bacteria, which inhibits the flagella sigma factor sigma 28; spoiiab, which inhibits the sporulation-specific sigma factor, sigma f and sigma g, of bacillus subtilis; rbsw of b. subtilis, which inhibits stress response sigma factor sigma b; and dnak, a general regulator of the heat shock response, which in bacteria inhibits the heat shock sigma factor sigma 32.",0
"the class includes asia form bacteriophage t4, which inhibits escherichia coli sigma 70; flgm, present in both gram-positive and gram-negative bacteria, which inhibits the flagella sigma factor sigma 28; spoiiab, which inhibits the sporulation-specific sigma factor, sigma f and sigma g, of bacillus subtilis; rbsw of b. subtilis, which inhibits stress response sigma factor sigma b; and dnak, a general regulator of the heat shock response, which in bacteria inhibits the heat shock sigma factor sigma 32.",0
"the class includes asia form bacteriophage t4, which inhibits escherichia coli sigma 70; flgm, present in both gram-positive and gram-negative bacteria, which inhibits the flagella sigma factor sigma 28; spoiiab, which inhibits the sporulation-specific sigma factor, sigma f and sigma g, of bacillus subtilis; rbsw of b. subtilis, which inhibits stress response sigma factor sigma b; and dnak, a general regulator of the heat shock response, which in bacteria inhibits the heat shock sigma factor sigma 32.",1
"the class includes asia form bacteriophage t4, which inhibits escherichia coli sigma 70; flgm, present in both gram-positive and gram-negative bacteria, which inhibits the flagella sigma factor sigma 28; spoiiab, which inhibits the sporulation-specific sigma factor, sigma f and sigma g, of bacillus subtilis; rbsw of b. subtilis, which inhibits stress response sigma factor sigma b; and dnak, a general regulator of the heat shock response, which in bacteria inhibits the heat shock sigma factor sigma 32.",1
"the class includes asia form bacteriophage t4, which inhibits escherichia coli sigma 70; flgm, present in both gram-positive and gram-negative bacteria, which inhibits the flagella sigma factor sigma 28; spoiiab, which inhibits the sporulation-specific sigma factor, sigma f and sigma g, of bacillus subtilis; rbsw of b. subtilis, which inhibits stress response sigma factor sigma b; and dnak, a general regulator of the heat shock response, which in bacteria inhibits the heat shock sigma factor sigma 32.",0
"the class includes asia form bacteriophage t4, which inhibits escherichia coli sigma 70; flgm, present in both gram-positive and gram-negative bacteria, which inhibits the flagella sigma factor sigma 28; spoiiab, which inhibits the sporulation-specific sigma factor, sigma f and sigma g, of bacillus subtilis; rbsw of b. subtilis, which inhibits stress response sigma factor sigma b; and dnak, a general regulator of the heat shock response, which in bacteria inhibits the heat shock sigma factor sigma 32.",0
"the class includes asia form bacteriophage t4, which inhibits escherichia coli sigma 70; flgm, present in both gram-positive and gram-negative bacteria, which inhibits the flagella sigma factor sigma 28; spoiiab, which inhibits the sporulation-specific sigma factor, sigma f and sigma g, of bacillus subtilis; rbsw of b. subtilis, which inhibits stress response sigma factor sigma b; and dnak, a general regulator of the heat shock response, which in bacteria inhibits the heat shock sigma factor sigma 32.",0
"the class includes asia form bacteriophage t4, which inhibits escherichia coli sigma 70; flgm, present in both gram-positive and gram-negative bacteria, which inhibits the flagella sigma factor sigma 28; spoiiab, which inhibits the sporulation-specific sigma factor, sigma f and sigma g, of bacillus subtilis; rbsw of b. subtilis, which inhibits stress response sigma factor sigma b; and dnak, a general regulator of the heat shock response, which in bacteria inhibits the heat shock sigma factor sigma 32.",0
"the class includes asia form bacteriophage t4, which inhibits escherichia coli sigma 70; flgm, present in both gram-positive and gram-negative bacteria, which inhibits the flagella sigma factor sigma 28; spoiiab, which inhibits the sporulation-specific sigma factor, sigma f and sigma g, of bacillus subtilis; rbsw of b. subtilis, which inhibits stress response sigma factor sigma b; and dnak, a general regulator of the heat shock response, which in bacteria inhibits the heat shock sigma factor sigma 32.",0
"the class includes asia form bacteriophage t4, which inhibits escherichia coli sigma 70; flgm, present in both gram-positive and gram-negative bacteria, which inhibits the flagella sigma factor sigma 28; spoiiab, which inhibits the sporulation-specific sigma factor, sigma f and sigma g, of bacillus subtilis; rbsw of b. subtilis, which inhibits stress response sigma factor sigma b; and dnak, a general regulator of the heat shock response, which in bacteria inhibits the heat shock sigma factor sigma 32.",0
"the class includes asia form bacteriophage t4, which inhibits escherichia coli sigma 70; flgm, present in both gram-positive and gram-negative bacteria, which inhibits the flagella sigma factor sigma 28; spoiiab, which inhibits the sporulation-specific sigma factor, sigma f and sigma g, of bacillus subtilis; rbsw of b. subtilis, which inhibits stress response sigma factor sigma b; and dnak, a general regulator of the heat shock response, which in bacteria inhibits the heat shock sigma factor sigma 32.",0
"the class includes asia form bacteriophage t4, which inhibits escherichia coli sigma 70; flgm, present in both gram-positive and gram-negative bacteria, which inhibits the flagella sigma factor sigma 28; spoiiab, which inhibits the sporulation-specific sigma factor, sigma f and sigma g, of bacillus subtilis; rbsw of b. subtilis, which inhibits stress response sigma factor sigma b; and dnak, a general regulator of the heat shock response, which in bacteria inhibits the heat shock sigma factor sigma 32.",1
"the class includes asia form bacteriophage t4, which inhibits escherichia coli sigma 70; flgm, present in both gram-positive and gram-negative bacteria, which inhibits the flagella sigma factor sigma 28; spoiiab, which inhibits the sporulation-specific sigma factor, sigma f and sigma g, of bacillus subtilis; rbsw of b. subtilis, which inhibits stress response sigma factor sigma b; and dnak, a general regulator of the heat shock response, which in bacteria inhibits the heat shock sigma factor sigma 32.",0
"the class includes asia form bacteriophage t4, which inhibits escherichia coli sigma 70; flgm, present in both gram-positive and gram-negative bacteria, which inhibits the flagella sigma factor sigma 28; spoiiab, which inhibits the sporulation-specific sigma factor, sigma f and sigma g, of bacillus subtilis; rbsw of b. subtilis, which inhibits stress response sigma factor sigma b; and dnak, a general regulator of the heat shock response, which in bacteria inhibits the heat shock sigma factor sigma 32.",0
"the class includes asia form bacteriophage t4, which inhibits escherichia coli sigma 70; flgm, present in both gram-positive and gram-negative bacteria, which inhibits the flagella sigma factor sigma 28; spoiiab, which inhibits the sporulation-specific sigma factor, sigma f and sigma g, of bacillus subtilis; rbsw of b. subtilis, which inhibits stress response sigma factor sigma b; and dnak, a general regulator of the heat shock response, which in bacteria inhibits the heat shock sigma factor sigma 32.",0
"the class includes asia form bacteriophage t4, which inhibits escherichia coli sigma 70; flgm, present in both gram-positive and gram-negative bacteria, which inhibits the flagella sigma factor sigma 28; spoiiab, which inhibits the sporulation-specific sigma factor, sigma f and sigma g, of bacillus subtilis; rbsw of b. subtilis, which inhibits stress response sigma factor sigma b; and dnak, a general regulator of the heat shock response, which in bacteria inhibits the heat shock sigma factor sigma 32.",0
"the class includes asia form bacteriophage t4, which inhibits escherichia coli sigma 70; flgm, present in both gram-positive and gram-negative bacteria, which inhibits the flagella sigma factor sigma 28; spoiiab, which inhibits the sporulation-specific sigma factor, sigma f and sigma g, of bacillus subtilis; rbsw of b. subtilis, which inhibits stress response sigma factor sigma b; and dnak, a general regulator of the heat shock response, which in bacteria inhibits the heat shock sigma factor sigma 32.",0
"the class includes asia form bacteriophage t4, which inhibits escherichia coli sigma 70; flgm, present in both gram-positive and gram-negative bacteria, which inhibits the flagella sigma factor sigma 28; spoiiab, which inhibits the sporulation-specific sigma factor, sigma f and sigma g, of bacillus subtilis; rbsw of b. subtilis, which inhibits stress response sigma factor sigma b; and dnak, a general regulator of the heat shock response, which in bacteria inhibits the heat shock sigma factor sigma 32.",0
"the class includes asia form bacteriophage t4, which inhibits escherichia coli sigma 70; flgm, present in both gram-positive and gram-negative bacteria, which inhibits the flagella sigma factor sigma 28; spoiiab, which inhibits the sporulation-specific sigma factor, sigma f and sigma g, of bacillus subtilis; rbsw of b. subtilis, which inhibits stress response sigma factor sigma b; and dnak, a general regulator of the heat shock response, which in bacteria inhibits the heat shock sigma factor sigma 32.",0
"the class includes asia form bacteriophage t4, which inhibits escherichia coli sigma 70; flgm, present in both gram-positive and gram-negative bacteria, which inhibits the flagella sigma factor sigma 28; spoiiab, which inhibits the sporulation-specific sigma factor, sigma f and sigma g, of bacillus subtilis; rbsw of b. subtilis, which inhibits stress response sigma factor sigma b; and dnak, a general regulator of the heat shock response, which in bacteria inhibits the heat shock sigma factor sigma 32.",1
"the class includes asia form bacteriophage t4, which inhibits escherichia coli sigma 70; flgm, present in both gram-positive and gram-negative bacteria, which inhibits the flagella sigma factor sigma 28; spoiiab, which inhibits the sporulation-specific sigma factor, sigma f and sigma g, of bacillus subtilis; rbsw of b. subtilis, which inhibits stress response sigma factor sigma b; and dnak, a general regulator of the heat shock response, which in bacteria inhibits the heat shock sigma factor sigma 32.",0
"the class includes asia form bacteriophage t4, which inhibits escherichia coli sigma 70; flgm, present in both gram-positive and gram-negative bacteria, which inhibits the flagella sigma factor sigma 28; spoiiab, which inhibits the sporulation-specific sigma factor, sigma f and sigma g, of bacillus subtilis; rbsw of b. subtilis, which inhibits stress response sigma factor sigma b; and dnak, a general regulator of the heat shock response, which in bacteria inhibits the heat shock sigma factor sigma 32.",0
"the class includes asia form bacteriophage t4, which inhibits escherichia coli sigma 70; flgm, present in both gram-positive and gram-negative bacteria, which inhibits the flagella sigma factor sigma 28; spoiiab, which inhibits the sporulation-specific sigma factor, sigma f and sigma g, of bacillus subtilis; rbsw of b. subtilis, which inhibits stress response sigma factor sigma b; and dnak, a general regulator of the heat shock response, which in bacteria inhibits the heat shock sigma factor sigma 32.",0
"the class includes asia form bacteriophage t4, which inhibits escherichia coli sigma 70; flgm, present in both gram-positive and gram-negative bacteria, which inhibits the flagella sigma factor sigma 28; spoiiab, which inhibits the sporulation-specific sigma factor, sigma f and sigma g, of bacillus subtilis; rbsw of b. subtilis, which inhibits stress response sigma factor sigma b; and dnak, a general regulator of the heat shock response, which in bacteria inhibits the heat shock sigma factor sigma 32.",1
"the class includes asia form bacteriophage t4, which inhibits escherichia coli sigma 70; flgm, present in both gram-positive and gram-negative bacteria, which inhibits the flagella sigma factor sigma 28; spoiiab, which inhibits the sporulation-specific sigma factor, sigma f and sigma g, of bacillus subtilis; rbsw of b. subtilis, which inhibits stress response sigma factor sigma b; and dnak, a general regulator of the heat shock response, which in bacteria inhibits the heat shock sigma factor sigma 32.",0
"the class includes asia form bacteriophage t4, which inhibits escherichia coli sigma 70; flgm, present in both gram-positive and gram-negative bacteria, which inhibits the flagella sigma factor sigma 28; spoiiab, which inhibits the sporulation-specific sigma factor, sigma f and sigma g, of bacillus subtilis; rbsw of b. subtilis, which inhibits stress response sigma factor sigma b; and dnak, a general regulator of the heat shock response, which in bacteria inhibits the heat shock sigma factor sigma 32.",0
"the class includes asia form bacteriophage t4, which inhibits escherichia coli sigma 70; flgm, present in both gram-positive and gram-negative bacteria, which inhibits the flagella sigma factor sigma 28; spoiiab, which inhibits the sporulation-specific sigma factor, sigma f and sigma g, of bacillus subtilis; rbsw of b. subtilis, which inhibits stress response sigma factor sigma b; and dnak, a general regulator of the heat shock response, which in bacteria inhibits the heat shock sigma factor sigma 32.",0
"the class includes asia form bacteriophage t4, which inhibits escherichia coli sigma 70; flgm, present in both gram-positive and gram-negative bacteria, which inhibits the flagella sigma factor sigma 28; spoiiab, which inhibits the sporulation-specific sigma factor, sigma f and sigma g, of bacillus subtilis; rbsw of b. subtilis, which inhibits stress response sigma factor sigma b; and dnak, a general regulator of the heat shock response, which in bacteria inhibits the heat shock sigma factor sigma 32.",0
"the class includes asia form bacteriophage t4, which inhibits escherichia coli sigma 70; flgm, present in both gram-positive and gram-negative bacteria, which inhibits the flagella sigma factor sigma 28; spoiiab, which inhibits the sporulation-specific sigma factor, sigma f and sigma g, of bacillus subtilis; rbsw of b. subtilis, which inhibits stress response sigma factor sigma b; and dnak, a general regulator of the heat shock response, which in bacteria inhibits the heat shock sigma factor sigma 32.",0
"the class includes asia form bacteriophage t4, which inhibits escherichia coli sigma 70; flgm, present in both gram-positive and gram-negative bacteria, which inhibits the flagella sigma factor sigma 28; spoiiab, which inhibits the sporulation-specific sigma factor, sigma f and sigma g, of bacillus subtilis; rbsw of b. subtilis, which inhibits stress response sigma factor sigma b; and dnak, a general regulator of the heat shock response, which in bacteria inhibits the heat shock sigma factor sigma 32.",0
"the class includes asia form bacteriophage t4, which inhibits escherichia coli sigma 70; flgm, present in both gram-positive and gram-negative bacteria, which inhibits the flagella sigma factor sigma 28; spoiiab, which inhibits the sporulation-specific sigma factor, sigma f and sigma g, of bacillus subtilis; rbsw of b. subtilis, which inhibits stress response sigma factor sigma b; and dnak, a general regulator of the heat shock response, which in bacteria inhibits the heat shock sigma factor sigma 32.",0
"the class includes asia form bacteriophage t4, which inhibits escherichia coli sigma 70; flgm, present in both gram-positive and gram-negative bacteria, which inhibits the flagella sigma factor sigma 28; spoiiab, which inhibits the sporulation-specific sigma factor, sigma f and sigma g, of bacillus subtilis; rbsw of b. subtilis, which inhibits stress response sigma factor sigma b; and dnak, a general regulator of the heat shock response, which in bacteria inhibits the heat shock sigma factor sigma 32.",0
"the class includes asia form bacteriophage t4, which inhibits escherichia coli sigma 70; flgm, present in both gram-positive and gram-negative bacteria, which inhibits the flagella sigma factor sigma 28; spoiiab, which inhibits the sporulation-specific sigma factor, sigma f and sigma g, of bacillus subtilis; rbsw of b. subtilis, which inhibits stress response sigma factor sigma b; and dnak, a general regulator of the heat shock response, which in bacteria inhibits the heat shock sigma factor sigma 32.",0
"the class includes asia form bacteriophage t4, which inhibits escherichia coli sigma 70; flgm, present in both gram-positive and gram-negative bacteria, which inhibits the flagella sigma factor sigma 28; spoiiab, which inhibits the sporulation-specific sigma factor, sigma f and sigma g, of bacillus subtilis; rbsw of b. subtilis, which inhibits stress response sigma factor sigma b; and dnak, a general regulator of the heat shock response, which in bacteria inhibits the heat shock sigma factor sigma 32.",0
"the class includes asia form bacteriophage t4, which inhibits escherichia coli sigma 70; flgm, present in both gram-positive and gram-negative bacteria, which inhibits the flagella sigma factor sigma 28; spoiiab, which inhibits the sporulation-specific sigma factor, sigma f and sigma g, of bacillus subtilis; rbsw of b. subtilis, which inhibits stress response sigma factor sigma b; and dnak, a general regulator of the heat shock response, which in bacteria inhibits the heat shock sigma factor sigma 32.",0
"finally, we show that proper localization of spoiva required the expression of one or more genes which, like spoiva, are under the control of the mother cell transcription factor sigmae.",1
"the sigma w regulon includes a penicillin binding protein (pbp4*) and a co-transcribed amino acid racemase (racx), homologues of signal peptide peptidase (ytei), flotillin (yuag), abc transporters (yknxyz), non-haem bromoperoxidase (ydjp), epoxide hydrolase (yfhm) and three small peptides with structural similarities to bacteriocin precursor polypeptides.",0
"the sigma w regulon includes a penicillin binding protein (pbp4*) and a co-transcribed amino acid racemase (racx), homologues of signal peptide peptidase (ytei), flotillin (yuag), abc transporters (yknxyz), non-haem bromoperoxidase (ydjp), epoxide hydrolase (yfhm) and three small peptides with structural similarities to bacteriocin precursor polypeptides.",0
"the sigma w regulon includes a penicillin binding protein (pbp4*) and a co-transcribed amino acid racemase (racx), homologues of signal peptide peptidase (ytei), flotillin (yuag), abc transporters (yknxyz), non-haem bromoperoxidase (ydjp), epoxide hydrolase (yfhm) and three small peptides with structural similarities to bacteriocin precursor polypeptides.",0
"the sigma w regulon includes a penicillin binding protein (pbp4*) and a co-transcribed amino acid racemase (racx), homologues of signal peptide peptidase (ytei), flotillin (yuag), abc transporters (yknxyz), non-haem bromoperoxidase (ydjp), epoxide hydrolase (yfhm) and three small peptides with structural similarities to bacteriocin precursor polypeptides.",1
"the sigma w regulon includes a penicillin binding protein (pbp4*) and a co-transcribed amino acid racemase (racx), homologues of signal peptide peptidase (ytei), flotillin (yuag), abc transporters (yknxyz), non-haem bromoperoxidase (ydjp), epoxide hydrolase (yfhm) and three small peptides with structural similarities to bacteriocin precursor polypeptides.",0
"the sigma w regulon includes a penicillin binding protein (pbp4*) and a co-transcribed amino acid racemase (racx), homologues of signal peptide peptidase (ytei), flotillin (yuag), abc transporters (yknxyz), non-haem bromoperoxidase (ydjp), epoxide hydrolase (yfhm) and three small peptides with structural similarities to bacteriocin precursor polypeptides.",0
"the sigma w regulon includes a penicillin binding protein (pbp4*) and a co-transcribed amino acid racemase (racx), homologues of signal peptide peptidase (ytei), flotillin (yuag), abc transporters (yknxyz), non-haem bromoperoxidase (ydjp), epoxide hydrolase (yfhm) and three small peptides with structural similarities to bacteriocin precursor polypeptides.",0
"the sigma w regulon includes a penicillin binding protein (pbp4*) and a co-transcribed amino acid racemase (racx), homologues of signal peptide peptidase (ytei), flotillin (yuag), abc transporters (yknxyz), non-haem bromoperoxidase (ydjp), epoxide hydrolase (yfhm) and three small peptides with structural similarities to bacteriocin precursor polypeptides.",0
"the sigma w regulon includes a penicillin binding protein (pbp4*) and a co-transcribed amino acid racemase (racx), homologues of signal peptide peptidase (ytei), flotillin (yuag), abc transporters (yknxyz), non-haem bromoperoxidase (ydjp), epoxide hydrolase (yfhm) and three small peptides with structural similarities to bacteriocin precursor polypeptides.",0
"the sigma w regulon includes a penicillin binding protein (pbp4*) and a co-transcribed amino acid racemase (racx), homologues of signal peptide peptidase (ytei), flotillin (yuag), abc transporters (yknxyz), non-haem bromoperoxidase (ydjp), epoxide hydrolase (yfhm) and three small peptides with structural similarities to bacteriocin precursor polypeptides.",1
"the sigma w regulon includes a penicillin binding protein (pbp4*) and a co-transcribed amino acid racemase (racx), homologues of signal peptide peptidase (ytei), flotillin (yuag), abc transporters (yknxyz), non-haem bromoperoxidase (ydjp), epoxide hydrolase (yfhm) and three small peptides with structural similarities to bacteriocin precursor polypeptides.",0
"the sigma w regulon includes a penicillin binding protein (pbp4*) and a co-transcribed amino acid racemase (racx), homologues of signal peptide peptidase (ytei), flotillin (yuag), abc transporters (yknxyz), non-haem bromoperoxidase (ydjp), epoxide hydrolase (yfhm) and three small peptides with structural similarities to bacteriocin precursor polypeptides.",0
"the sigma w regulon includes a penicillin binding protein (pbp4*) and a co-transcribed amino acid racemase (racx), homologues of signal peptide peptidase (ytei), flotillin (yuag), abc transporters (yknxyz), non-haem bromoperoxidase (ydjp), epoxide hydrolase (yfhm) and three small peptides with structural similarities to bacteriocin precursor polypeptides.",0
"the sigma w regulon includes a penicillin binding protein (pbp4*) and a co-transcribed amino acid racemase (racx), homologues of signal peptide peptidase (ytei), flotillin (yuag), abc transporters (yknxyz), non-haem bromoperoxidase (ydjp), epoxide hydrolase (yfhm) and three small peptides with structural similarities to bacteriocin precursor polypeptides.",0
"the sigma w regulon includes a penicillin binding protein (pbp4*) and a co-transcribed amino acid racemase (racx), homologues of signal peptide peptidase (ytei), flotillin (yuag), abc transporters (yknxyz), non-haem bromoperoxidase (ydjp), epoxide hydrolase (yfhm) and three small peptides with structural similarities to bacteriocin precursor polypeptides.",1
"the sigma w regulon includes a penicillin binding protein (pbp4*) and a co-transcribed amino acid racemase (racx), homologues of signal peptide peptidase (ytei), flotillin (yuag), abc transporters (yknxyz), non-haem bromoperoxidase (ydjp), epoxide hydrolase (yfhm) and three small peptides with structural similarities to bacteriocin precursor polypeptides.",0
"the sigma w regulon includes a penicillin binding protein (pbp4*) and a co-transcribed amino acid racemase (racx), homologues of signal peptide peptidase (ytei), flotillin (yuag), abc transporters (yknxyz), non-haem bromoperoxidase (ydjp), epoxide hydrolase (yfhm) and three small peptides with structural similarities to bacteriocin precursor polypeptides.",0
"the sigma w regulon includes a penicillin binding protein (pbp4*) and a co-transcribed amino acid racemase (racx), homologues of signal peptide peptidase (ytei), flotillin (yuag), abc transporters (yknxyz), non-haem bromoperoxidase (ydjp), epoxide hydrolase (yfhm) and three small peptides with structural similarities to bacteriocin precursor polypeptides.",0
"the sigma w regulon includes a penicillin binding protein (pbp4*) and a co-transcribed amino acid racemase (racx), homologues of signal peptide peptidase (ytei), flotillin (yuag), abc transporters (yknxyz), non-haem bromoperoxidase (ydjp), epoxide hydrolase (yfhm) and three small peptides with structural similarities to bacteriocin precursor polypeptides.",1
"the sigma w regulon includes a penicillin binding protein (pbp4*) and a co-transcribed amino acid racemase (racx), homologues of signal peptide peptidase (ytei), flotillin (yuag), abc transporters (yknxyz), non-haem bromoperoxidase (ydjp), epoxide hydrolase (yfhm) and three small peptides with structural similarities to bacteriocin precursor polypeptides.",0
"the sigma w regulon includes a penicillin binding protein (pbp4*) and a co-transcribed amino acid racemase (racx), homologues of signal peptide peptidase (ytei), flotillin (yuag), abc transporters (yknxyz), non-haem bromoperoxidase (ydjp), epoxide hydrolase (yfhm) and three small peptides with structural similarities to bacteriocin precursor polypeptides.",0
"the sigma w regulon includes a penicillin binding protein (pbp4*) and a co-transcribed amino acid racemase (racx), homologues of signal peptide peptidase (ytei), flotillin (yuag), abc transporters (yknxyz), non-haem bromoperoxidase (ydjp), epoxide hydrolase (yfhm) and three small peptides with structural similarities to bacteriocin precursor polypeptides.",0
"the sigma w regulon includes a penicillin binding protein (pbp4*) and a co-transcribed amino acid racemase (racx), homologues of signal peptide peptidase (ytei), flotillin (yuag), abc transporters (yknxyz), non-haem bromoperoxidase (ydjp), epoxide hydrolase (yfhm) and three small peptides with structural similarities to bacteriocin precursor polypeptides.",1
"the sigma w regulon includes a penicillin binding protein (pbp4*) and a co-transcribed amino acid racemase (racx), homologues of signal peptide peptidase (ytei), flotillin (yuag), abc transporters (yknxyz), non-haem bromoperoxidase (ydjp), epoxide hydrolase (yfhm) and three small peptides with structural similarities to bacteriocin precursor polypeptides.",1
"the sigma w regulon includes a penicillin binding protein (pbp4*) and a co-transcribed amino acid racemase (racx), homologues of signal peptide peptidase (ytei), flotillin (yuag), abc transporters (yknxyz), non-haem bromoperoxidase (ydjp), epoxide hydrolase (yfhm) and three small peptides with structural similarities to bacteriocin precursor polypeptides.",1
"the sigma w regulon includes a penicillin binding protein (pbp4*) and a co-transcribed amino acid racemase (racx), homologues of signal peptide peptidase (ytei), flotillin (yuag), abc transporters (yknxyz), non-haem bromoperoxidase (ydjp), epoxide hydrolase (yfhm) and three small peptides with structural similarities to bacteriocin precursor polypeptides.",0
"the sigma w regulon includes a penicillin binding protein (pbp4*) and a co-transcribed amino acid racemase (racx), homologues of signal peptide peptidase (ytei), flotillin (yuag), abc transporters (yknxyz), non-haem bromoperoxidase (ydjp), epoxide hydrolase (yfhm) and three small peptides with structural similarities to bacteriocin precursor polypeptides.",0
"the sigma w regulon includes a penicillin binding protein (pbp4*) and a co-transcribed amino acid racemase (racx), homologues of signal peptide peptidase (ytei), flotillin (yuag), abc transporters (yknxyz), non-haem bromoperoxidase (ydjp), epoxide hydrolase (yfhm) and three small peptides with structural similarities to bacteriocin precursor polypeptides.",0
"production of sigmak about 1 h earlier than normal does affect spo0a, which when phosphorylated is an activator of sige transcription.",1
"production of sigmak about 1 h earlier than normal does affect spo0a, which when phosphorylated is an activator of sige transcription.",1
"production of sigmak about 1 h earlier than normal does affect spo0a, which when phosphorylated is an activator of sige transcription.",0
"the ald promoter, like the sige promoter, is believed to be recognized by sigmaa rna polymerase, suggesting that sigmak may inhibit sigmaa activity late in sporulation.",0
"the ald promoter, like the sige promoter, is believed to be recognized by sigmaa rna polymerase, suggesting that sigmak may inhibit sigmaa activity late in sporulation.",0
"the ald promoter, like the sige promoter, is believed to be recognized by sigmaa rna polymerase, suggesting that sigmak may inhibit sigmaa activity late in sporulation.",1
"the ald promoter, like the sige promoter, is believed to be recognized by sigmaa rna polymerase, suggesting that sigmak may inhibit sigmaa activity late in sporulation.",0
"the ald promoter, like the sige promoter, is believed to be recognized by sigmaa rna polymerase, suggesting that sigmak may inhibit sigmaa activity late in sporulation.",1
"the ald promoter, like the sige promoter, is believed to be recognized by sigmaa rna polymerase, suggesting that sigmak may inhibit sigmaa activity late in sporulation.",0
"the ald promoter, like the sige promoter, is believed to be recognized by sigmaa rna polymerase, suggesting that sigmak may inhibit sigmaa activity late in sporulation.",1
"the ald promoter, like the sige promoter, is believed to be recognized by sigmaa rna polymerase, suggesting that sigmak may inhibit sigmaa activity late in sporulation.",0
"the ald promoter, like the sige promoter, is believed to be recognized by sigmaa rna polymerase, suggesting that sigmak may inhibit sigmaa activity late in sporulation.",0
"the ald promoter, like the sige promoter, is believed to be recognized by sigmaa rna polymerase, suggesting that sigmak may inhibit sigmaa activity late in sporulation.",0
"in the mother cell compartment of sporulating cells, expression of the sige gene, encoding the earlier-acting sigma factor, sigmae, is negatively regulated by the later-acting sigma factor, sigmak.",1
