pro1_pdb,pro1_tamano,pro2_pdb,pro2_tamano
3OT7.pdb,14298,1QGJ.pdb,6703
3OT7.pdb,14298,pares_proteinas.csv,92
3OT7.pdb,14298,1Z6T.pdb,20767
3OT7.pdb,14298,1YAI.pdb,4298
3OT7.pdb,14298,7CAT.pdb,9256
3OT7.pdb,14298,1CP3.pdb,4745
3OT7.pdb,14298,1GRE.pdb,4843
3OT7.pdb,14298,1COJ.pdb,2195
3OT7.pdb,14298,1IBC.pdb,2602
3OT7.pdb,14298,2JLE.pdb,9047
3OT7.pdb,14298,1MSI.pdb,1201
3OT7.pdb,14298,1VKE.pdb,6592
3OT7.pdb,14298,1ORF.pdb,2476
3OT7.pdb,14298,5XWH.pdb,4066
1QGJ.pdb,6703,pares_proteinas.csv,92
1QGJ.pdb,6703,1Z6T.pdb,20767
1QGJ.pdb,6703,1YAI.pdb,4298
1QGJ.pdb,6703,7CAT.pdb,9256
1QGJ.pdb,6703,1CP3.pdb,4745
1QGJ.pdb,6703,1GRE.pdb,4843
1QGJ.pdb,6703,1COJ.pdb,2195
1QGJ.pdb,6703,1IBC.pdb,2602
1QGJ.pdb,6703,2JLE.pdb,9047
1QGJ.pdb,6703,1MSI.pdb,1201
1QGJ.pdb,6703,1VKE.pdb,6592
1QGJ.pdb,6703,1ORF.pdb,2476
1QGJ.pdb,6703,5XWH.pdb,4066
pares_proteinas.csv,92,1Z6T.pdb,20767
pares_proteinas.csv,92,1YAI.pdb,4298
pares_proteinas.csv,92,7CAT.pdb,9256
pares_proteinas.csv,92,1CP3.pdb,4745
pares_proteinas.csv,92,1GRE.pdb,4843
pares_proteinas.csv,92,1COJ.pdb,2195
pares_proteinas.csv,92,1IBC.pdb,2602
pares_proteinas.csv,92,2JLE.pdb,9047
pares_proteinas.csv,92,1MSI.pdb,1201
pares_proteinas.csv,92,1VKE.pdb,6592
pares_proteinas.csv,92,1ORF.pdb,2476
pares_proteinas.csv,92,5XWH.pdb,4066
1Z6T.pdb,20767,1YAI.pdb,4298
1Z6T.pdb,20767,7CAT.pdb,9256
1Z6T.pdb,20767,1CP3.pdb,4745
1Z6T.pdb,20767,1GRE.pdb,4843
1Z6T.pdb,20767,1COJ.pdb,2195
1Z6T.pdb,20767,1IBC.pdb,2602
1Z6T.pdb,20767,2JLE.pdb,9047
1Z6T.pdb,20767,1MSI.pdb,1201
1Z6T.pdb,20767,1VKE.pdb,6592
1Z6T.pdb,20767,1ORF.pdb,2476
1Z6T.pdb,20767,5XWH.pdb,4066
1YAI.pdb,4298,7CAT.pdb,9256
1YAI.pdb,4298,1CP3.pdb,4745
1YAI.pdb,4298,1GRE.pdb,4843
1YAI.pdb,4298,1COJ.pdb,2195
1YAI.pdb,4298,1IBC.pdb,2602
1YAI.pdb,4298,2JLE.pdb,9047
1YAI.pdb,4298,1MSI.pdb,1201
1YAI.pdb,4298,1VKE.pdb,6592
1YAI.pdb,4298,1ORF.pdb,2476
1YAI.pdb,4298,5XWH.pdb,4066
7CAT.pdb,9256,1CP3.pdb,4745
7CAT.pdb,9256,1GRE.pdb,4843
7CAT.pdb,9256,1COJ.pdb,2195
7CAT.pdb,9256,1IBC.pdb,2602
7CAT.pdb,9256,2JLE.pdb,9047
7CAT.pdb,9256,1MSI.pdb,1201
7CAT.pdb,9256,1VKE.pdb,6592
7CAT.pdb,9256,1ORF.pdb,2476
7CAT.pdb,9256,5XWH.pdb,4066
1CP3.pdb,4745,1GRE.pdb,4843
1CP3.pdb,4745,1COJ.pdb,2195
1CP3.pdb,4745,1IBC.pdb,2602
1CP3.pdb,4745,2JLE.pdb,9047
1CP3.pdb,4745,1MSI.pdb,1201
1CP3.pdb,4745,1VKE.pdb,6592
1CP3.pdb,4745,1ORF.pdb,2476
1CP3.pdb,4745,5XWH.pdb,4066
1GRE.pdb,4843,1COJ.pdb,2195
1GRE.pdb,4843,1IBC.pdb,2602
1GRE.pdb,4843,2JLE.pdb,9047
1GRE.pdb,4843,1MSI.pdb,1201
1GRE.pdb,4843,1VKE.pdb,6592
1GRE.pdb,4843,1ORF.pdb,2476
1GRE.pdb,4843,5XWH.pdb,4066
1COJ.pdb,2195,1IBC.pdb,2602
1COJ.pdb,2195,2JLE.pdb,9047
1COJ.pdb,2195,1MSI.pdb,1201
1COJ.pdb,2195,1VKE.pdb,6592
1COJ.pdb,2195,1ORF.pdb,2476
1COJ.pdb,2195,5XWH.pdb,4066
1IBC.pdb,2602,2JLE.pdb,9047
1IBC.pdb,2602,1MSI.pdb,1201
1IBC.pdb,2602,1VKE.pdb,6592
1IBC.pdb,2602,1ORF.pdb,2476
1IBC.pdb,2602,5XWH.pdb,4066
2JLE.pdb,9047,1MSI.pdb,1201
2JLE.pdb,9047,1VKE.pdb,6592
2JLE.pdb,9047,1ORF.pdb,2476
2JLE.pdb,9047,5XWH.pdb,4066
1MSI.pdb,1201,1VKE.pdb,6592
1MSI.pdb,1201,1ORF.pdb,2476
1MSI.pdb,1201,5XWH.pdb,4066
1VKE.pdb,6592,1ORF.pdb,2476
1VKE.pdb,6592,5XWH.pdb,4066
1ORF.pdb,2476,5XWH.pdb,4066
