Index,Abstract,Resultado
0,"sigmaf is controlled by a regulatory cascade involving an anti-sigma factor, spoiiab, an anti-anti-sigma factor, spoiiaa, and a membrane-bound phosphatase, spoiie, which converts the inactive, phosphorylated form of spoiiaa back to the active form.",0
1,"sigmaf is controlled by a regulatory cascade involving an anti-sigma factor, spoiiab, an anti-anti-sigma factor, spoiiaa, and a membrane-bound phosphatase, spoiie, which converts the inactive, phosphorylated form of spoiiaa back to the active form.",0
2,"sigmaf is controlled by a regulatory cascade involving an anti-sigma factor, spoiiab, an anti-anti-sigma factor, spoiiaa, and a membrane-bound phosphatase, spoiie, which converts the inactive, phosphorylated form of spoiiaa back to the active form.",0
3,"sigmaf is controlled by a regulatory cascade involving an anti-sigma factor, spoiiab, an anti-anti-sigma factor, spoiiaa, and a membrane-bound phosphatase, spoiie, which converts the inactive, phosphorylated form of spoiiaa back to the active form.",0
4,"sigmaf is controlled by a regulatory cascade involving an anti-sigma factor, spoiiab, an anti-anti-sigma factor, spoiiaa, and a membrane-bound phosphatase, spoiie, which converts the inactive, phosphorylated form of spoiiaa back to the active form.",0
5,"sigmaf is controlled by a regulatory cascade involving an anti-sigma factor, spoiiab, an anti-anti-sigma factor, spoiiaa, and a membrane-bound phosphatase, spoiie, which converts the inactive, phosphorylated form of spoiiaa back to the active form.",0
6,"sigmaf is controlled by a regulatory cascade involving an anti-sigma factor, spoiiab, an anti-anti-sigma factor, spoiiaa, and a membrane-bound phosphatase, spoiie, which converts the inactive, phosphorylated form of spoiiaa back to the active form.",0
7,"sigmaf is controlled by a regulatory cascade involving an anti-sigma factor, spoiiab, an anti-anti-sigma factor, spoiiaa, and a membrane-bound phosphatase, spoiie, which converts the inactive, phosphorylated form of spoiiaa back to the active form.",0
8,"sigmaf is controlled by a regulatory cascade involving an anti-sigma factor, spoiiab, an anti-anti-sigma factor, spoiiaa, and a membrane-bound phosphatase, spoiie, which converts the inactive, phosphorylated form of spoiiaa back to the active form.",0
9,"sigmaf is controlled by a regulatory cascade involving an anti-sigma factor, spoiiab, an anti-anti-sigma factor, spoiiaa, and a membrane-bound phosphatase, spoiie, which converts the inactive, phosphorylated form of spoiiaa back to the active form.",0
10,"the first stage, which involves the phosphatase function of spoiie, depends on the cell division protein ftsz and could correspond to the ftsz-dependent assembly of spoiie into e-rings.",0
11,"the first stage, which involves the phosphatase function of spoiie, depends on the cell division protein ftsz and could correspond to the ftsz-dependent assembly of spoiie into e-rings.",0
12,"the first stage, which involves the phosphatase function of spoiie, depends on the cell division protein ftsz and could correspond to the ftsz-dependent assembly of spoiie into e-rings.",0
13,"the first stage, which involves the phosphatase function of spoiie, depends on the cell division protein ftsz and could correspond to the ftsz-dependent assembly of spoiie into e-rings.",0
14,"the first stage, which involves the phosphatase function of spoiie, depends on the cell division protein ftsz and could correspond to the ftsz-dependent assembly of spoiie into e-rings.",0
15,"the first stage, which involves the phosphatase function of spoiie, depends on the cell division protein ftsz and could correspond to the ftsz-dependent assembly of spoiie into e-rings.",0
16,"the class includes asia form bacteriophage t4, which inhibits escherichia coli sigma 70; flgm, present in both gram-positive and gram-negative bacteria, which inhibits the flagella sigma factor sigma 28; spoiiab, which inhibits the sporulation-specific sigma factor, sigma f and sigma g, of bacillus subtilis; rbsw of b. subtilis, which inhibits stress response sigma factor sigma b; and dnak, a general regulator of the heat shock response, which in bacteria inhibits the heat shock sigma factor sigma 32.",0
17,"the class includes asia form bacteriophage t4, which inhibits escherichia coli sigma 70; flgm, present in both gram-positive and gram-negative bacteria, which inhibits the flagella sigma factor sigma 28; spoiiab, which inhibits the sporulation-specific sigma factor, sigma f and sigma g, of bacillus subtilis; rbsw of b. subtilis, which inhibits stress response sigma factor sigma b; and dnak, a general regulator of the heat shock response, which in bacteria inhibits the heat shock sigma factor sigma 32.",0
18,"the class includes asia form bacteriophage t4, which inhibits escherichia coli sigma 70; flgm, present in both gram-positive and gram-negative bacteria, which inhibits the flagella sigma factor sigma 28; spoiiab, which inhibits the sporulation-specific sigma factor, sigma f and sigma g, of bacillus subtilis; rbsw of b. subtilis, which inhibits stress response sigma factor sigma b; and dnak, a general regulator of the heat shock response, which in bacteria inhibits the heat shock sigma factor sigma 32.",0
19,"the class includes asia form bacteriophage t4, which inhibits escherichia coli sigma 70; flgm, present in both gram-positive and gram-negative bacteria, which inhibits the flagella sigma factor sigma 28; spoiiab, which inhibits the sporulation-specific sigma factor, sigma f and sigma g, of bacillus subtilis; rbsw of b. subtilis, which inhibits stress response sigma factor sigma b; and dnak, a general regulator of the heat shock response, which in bacteria inhibits the heat shock sigma factor sigma 32.",0
20,"the class includes asia form bacteriophage t4, which inhibits escherichia coli sigma 70; flgm, present in both gram-positive and gram-negative bacteria, which inhibits the flagella sigma factor sigma 28; spoiiab, which inhibits the sporulation-specific sigma factor, sigma f and sigma g, of bacillus subtilis; rbsw of b. subtilis, which inhibits stress response sigma factor sigma b; and dnak, a general regulator of the heat shock response, which in bacteria inhibits the heat shock sigma factor sigma 32.",0
21,"the class includes asia form bacteriophage t4, which inhibits escherichia coli sigma 70; flgm, present in both gram-positive and gram-negative bacteria, which inhibits the flagella sigma factor sigma 28; spoiiab, which inhibits the sporulation-specific sigma factor, sigma f and sigma g, of bacillus subtilis; rbsw of b. subtilis, which inhibits stress response sigma factor sigma b; and dnak, a general regulator of the heat shock response, which in bacteria inhibits the heat shock sigma factor sigma 32.",0
22,"the class includes asia form bacteriophage t4, which inhibits escherichia coli sigma 70; flgm, present in both gram-positive and gram-negative bacteria, which inhibits the flagella sigma factor sigma 28; spoiiab, which inhibits the sporulation-specific sigma factor, sigma f and sigma g, of bacillus subtilis; rbsw of b. subtilis, which inhibits stress response sigma factor sigma b; and dnak, a general regulator of the heat shock response, which in bacteria inhibits the heat shock sigma factor sigma 32.",0
23,"the class includes asia form bacteriophage t4, which inhibits escherichia coli sigma 70; flgm, present in both gram-positive and gram-negative bacteria, which inhibits the flagella sigma factor sigma 28; spoiiab, which inhibits the sporulation-specific sigma factor, sigma f and sigma g, of bacillus subtilis; rbsw of b. subtilis, which inhibits stress response sigma factor sigma b; and dnak, a general regulator of the heat shock response, which in bacteria inhibits the heat shock sigma factor sigma 32.",0
24,"the class includes asia form bacteriophage t4, which inhibits escherichia coli sigma 70; flgm, present in both gram-positive and gram-negative bacteria, which inhibits the flagella sigma factor sigma 28; spoiiab, which inhibits the sporulation-specific sigma factor, sigma f and sigma g, of bacillus subtilis; rbsw of b. subtilis, which inhibits stress response sigma factor sigma b; and dnak, a general regulator of the heat shock response, which in bacteria inhibits the heat shock sigma factor sigma 32.",0
25,"the class includes asia form bacteriophage t4, which inhibits escherichia coli sigma 70; flgm, present in both gram-positive and gram-negative bacteria, which inhibits the flagella sigma factor sigma 28; spoiiab, which inhibits the sporulation-specific sigma factor, sigma f and sigma g, of bacillus subtilis; rbsw of b. subtilis, which inhibits stress response sigma factor sigma b; and dnak, a general regulator of the heat shock response, which in bacteria inhibits the heat shock sigma factor sigma 32.",0
26,"the class includes asia form bacteriophage t4, which inhibits escherichia coli sigma 70; flgm, present in both gram-positive and gram-negative bacteria, which inhibits the flagella sigma factor sigma 28; spoiiab, which inhibits the sporulation-specific sigma factor, sigma f and sigma g, of bacillus subtilis; rbsw of b. subtilis, which inhibits stress response sigma factor sigma b; and dnak, a general regulator of the heat shock response, which in bacteria inhibits the heat shock sigma factor sigma 32.",0
27,"the class includes asia form bacteriophage t4, which inhibits escherichia coli sigma 70; flgm, present in both gram-positive and gram-negative bacteria, which inhibits the flagella sigma factor sigma 28; spoiiab, which inhibits the sporulation-specific sigma factor, sigma f and sigma g, of bacillus subtilis; rbsw of b. subtilis, which inhibits stress response sigma factor sigma b; and dnak, a general regulator of the heat shock response, which in bacteria inhibits the heat shock sigma factor sigma 32.",0
28,"the class includes asia form bacteriophage t4, which inhibits escherichia coli sigma 70; flgm, present in both gram-positive and gram-negative bacteria, which inhibits the flagella sigma factor sigma 28; spoiiab, which inhibits the sporulation-specific sigma factor, sigma f and sigma g, of bacillus subtilis; rbsw of b. subtilis, which inhibits stress response sigma factor sigma b; and dnak, a general regulator of the heat shock response, which in bacteria inhibits the heat shock sigma factor sigma 32.",0
29,"the class includes asia form bacteriophage t4, which inhibits escherichia coli sigma 70; flgm, present in both gram-positive and gram-negative bacteria, which inhibits the flagella sigma factor sigma 28; spoiiab, which inhibits the sporulation-specific sigma factor, sigma f and sigma g, of bacillus subtilis; rbsw of b. subtilis, which inhibits stress response sigma factor sigma b; and dnak, a general regulator of the heat shock response, which in bacteria inhibits the heat shock sigma factor sigma 32.",0
30,"the class includes asia form bacteriophage t4, which inhibits escherichia coli sigma 70; flgm, present in both gram-positive and gram-negative bacteria, which inhibits the flagella sigma factor sigma 28; spoiiab, which inhibits the sporulation-specific sigma factor, sigma f and sigma g, of bacillus subtilis; rbsw of b. subtilis, which inhibits stress response sigma factor sigma b; and dnak, a general regulator of the heat shock response, which in bacteria inhibits the heat shock sigma factor sigma 32.",0
31,"the class includes asia form bacteriophage t4, which inhibits escherichia coli sigma 70; flgm, present in both gram-positive and gram-negative bacteria, which inhibits the flagella sigma factor sigma 28; spoiiab, which inhibits the sporulation-specific sigma factor, sigma f and sigma g, of bacillus subtilis; rbsw of b. subtilis, which inhibits stress response sigma factor sigma b; and dnak, a general regulator of the heat shock response, which in bacteria inhibits the heat shock sigma factor sigma 32.",0
32,"the class includes asia form bacteriophage t4, which inhibits escherichia coli sigma 70; flgm, present in both gram-positive and gram-negative bacteria, which inhibits the flagella sigma factor sigma 28; spoiiab, which inhibits the sporulation-specific sigma factor, sigma f and sigma g, of bacillus subtilis; rbsw of b. subtilis, which inhibits stress response sigma factor sigma b; and dnak, a general regulator of the heat shock response, which in bacteria inhibits the heat shock sigma factor sigma 32.",0
33,"the class includes asia form bacteriophage t4, which inhibits escherichia coli sigma 70; flgm, present in both gram-positive and gram-negative bacteria, which inhibits the flagella sigma factor sigma 28; spoiiab, which inhibits the sporulation-specific sigma factor, sigma f and sigma g, of bacillus subtilis; rbsw of b. subtilis, which inhibits stress response sigma factor sigma b; and dnak, a general regulator of the heat shock response, which in bacteria inhibits the heat shock sigma factor sigma 32.",0
34,"the class includes asia form bacteriophage t4, which inhibits escherichia coli sigma 70; flgm, present in both gram-positive and gram-negative bacteria, which inhibits the flagella sigma factor sigma 28; spoiiab, which inhibits the sporulation-specific sigma factor, sigma f and sigma g, of bacillus subtilis; rbsw of b. subtilis, which inhibits stress response sigma factor sigma b; and dnak, a general regulator of the heat shock response, which in bacteria inhibits the heat shock sigma factor sigma 32.",0
35,"the class includes asia form bacteriophage t4, which inhibits escherichia coli sigma 70; flgm, present in both gram-positive and gram-negative bacteria, which inhibits the flagella sigma factor sigma 28; spoiiab, which inhibits the sporulation-specific sigma factor, sigma f and sigma g, of bacillus subtilis; rbsw of b. subtilis, which inhibits stress response sigma factor sigma b; and dnak, a general regulator of the heat shock response, which in bacteria inhibits the heat shock sigma factor sigma 32.",0
36,"the class includes asia form bacteriophage t4, which inhibits escherichia coli sigma 70; flgm, present in both gram-positive and gram-negative bacteria, which inhibits the flagella sigma factor sigma 28; spoiiab, which inhibits the sporulation-specific sigma factor, sigma f and sigma g, of bacillus subtilis; rbsw of b. subtilis, which inhibits stress response sigma factor sigma b; and dnak, a general regulator of the heat shock response, which in bacteria inhibits the heat shock sigma factor sigma 32.",0
37,"the class includes asia form bacteriophage t4, which inhibits escherichia coli sigma 70; flgm, present in both gram-positive and gram-negative bacteria, which inhibits the flagella sigma factor sigma 28; spoiiab, which inhibits the sporulation-specific sigma factor, sigma f and sigma g, of bacillus subtilis; rbsw of b. subtilis, which inhibits stress response sigma factor sigma b; and dnak, a general regulator of the heat shock response, which in bacteria inhibits the heat shock sigma factor sigma 32.",0
38,"the class includes asia form bacteriophage t4, which inhibits escherichia coli sigma 70; flgm, present in both gram-positive and gram-negative bacteria, which inhibits the flagella sigma factor sigma 28; spoiiab, which inhibits the sporulation-specific sigma factor, sigma f and sigma g, of bacillus subtilis; rbsw of b. subtilis, which inhibits stress response sigma factor sigma b; and dnak, a general regulator of the heat shock response, which in bacteria inhibits the heat shock sigma factor sigma 32.",0
39,"the class includes asia form bacteriophage t4, which inhibits escherichia coli sigma 70; flgm, present in both gram-positive and gram-negative bacteria, which inhibits the flagella sigma factor sigma 28; spoiiab, which inhibits the sporulation-specific sigma factor, sigma f and sigma g, of bacillus subtilis; rbsw of b. subtilis, which inhibits stress response sigma factor sigma b; and dnak, a general regulator of the heat shock response, which in bacteria inhibits the heat shock sigma factor sigma 32.",0
40,"the class includes asia form bacteriophage t4, which inhibits escherichia coli sigma 70; flgm, present in both gram-positive and gram-negative bacteria, which inhibits the flagella sigma factor sigma 28; spoiiab, which inhibits the sporulation-specific sigma factor, sigma f and sigma g, of bacillus subtilis; rbsw of b. subtilis, which inhibits stress response sigma factor sigma b; and dnak, a general regulator of the heat shock response, which in bacteria inhibits the heat shock sigma factor sigma 32.",0
41,"the class includes asia form bacteriophage t4, which inhibits escherichia coli sigma 70; flgm, present in both gram-positive and gram-negative bacteria, which inhibits the flagella sigma factor sigma 28; spoiiab, which inhibits the sporulation-specific sigma factor, sigma f and sigma g, of bacillus subtilis; rbsw of b. subtilis, which inhibits stress response sigma factor sigma b; and dnak, a general regulator of the heat shock response, which in bacteria inhibits the heat shock sigma factor sigma 32.",0
42,"the class includes asia form bacteriophage t4, which inhibits escherichia coli sigma 70; flgm, present in both gram-positive and gram-negative bacteria, which inhibits the flagella sigma factor sigma 28; spoiiab, which inhibits the sporulation-specific sigma factor, sigma f and sigma g, of bacillus subtilis; rbsw of b. subtilis, which inhibits stress response sigma factor sigma b; and dnak, a general regulator of the heat shock response, which in bacteria inhibits the heat shock sigma factor sigma 32.",0
43,"the class includes asia form bacteriophage t4, which inhibits escherichia coli sigma 70; flgm, present in both gram-positive and gram-negative bacteria, which inhibits the flagella sigma factor sigma 28; spoiiab, which inhibits the sporulation-specific sigma factor, sigma f and sigma g, of bacillus subtilis; rbsw of b. subtilis, which inhibits stress response sigma factor sigma b; and dnak, a general regulator of the heat shock response, which in bacteria inhibits the heat shock sigma factor sigma 32.",0
44,"the class includes asia form bacteriophage t4, which inhibits escherichia coli sigma 70; flgm, present in both gram-positive and gram-negative bacteria, which inhibits the flagella sigma factor sigma 28; spoiiab, which inhibits the sporulation-specific sigma factor, sigma f and sigma g, of bacillus subtilis; rbsw of b. subtilis, which inhibits stress response sigma factor sigma b; and dnak, a general regulator of the heat shock response, which in bacteria inhibits the heat shock sigma factor sigma 32.",0
45,"the class includes asia form bacteriophage t4, which inhibits escherichia coli sigma 70; flgm, present in both gram-positive and gram-negative bacteria, which inhibits the flagella sigma factor sigma 28; spoiiab, which inhibits the sporulation-specific sigma factor, sigma f and sigma g, of bacillus subtilis; rbsw of b. subtilis, which inhibits stress response sigma factor sigma b; and dnak, a general regulator of the heat shock response, which in bacteria inhibits the heat shock sigma factor sigma 32.",0
46,"the class includes asia form bacteriophage t4, which inhibits escherichia coli sigma 70; flgm, present in both gram-positive and gram-negative bacteria, which inhibits the flagella sigma factor sigma 28; spoiiab, which inhibits the sporulation-specific sigma factor, sigma f and sigma g, of bacillus subtilis; rbsw of b. subtilis, which inhibits stress response sigma factor sigma b; and dnak, a general regulator of the heat shock response, which in bacteria inhibits the heat shock sigma factor sigma 32.",0
47,"the class includes asia form bacteriophage t4, which inhibits escherichia coli sigma 70; flgm, present in both gram-positive and gram-negative bacteria, which inhibits the flagella sigma factor sigma 28; spoiiab, which inhibits the sporulation-specific sigma factor, sigma f and sigma g, of bacillus subtilis; rbsw of b. subtilis, which inhibits stress response sigma factor sigma b; and dnak, a general regulator of the heat shock response, which in bacteria inhibits the heat shock sigma factor sigma 32.",0
48,"the class includes asia form bacteriophage t4, which inhibits escherichia coli sigma 70; flgm, present in both gram-positive and gram-negative bacteria, which inhibits the flagella sigma factor sigma 28; spoiiab, which inhibits the sporulation-specific sigma factor, sigma f and sigma g, of bacillus subtilis; rbsw of b. subtilis, which inhibits stress response sigma factor sigma b; and dnak, a general regulator of the heat shock response, which in bacteria inhibits the heat shock sigma factor sigma 32.",0
49,"the class includes asia form bacteriophage t4, which inhibits escherichia coli sigma 70; flgm, present in both gram-positive and gram-negative bacteria, which inhibits the flagella sigma factor sigma 28; spoiiab, which inhibits the sporulation-specific sigma factor, sigma f and sigma g, of bacillus subtilis; rbsw of b. subtilis, which inhibits stress response sigma factor sigma b; and dnak, a general regulator of the heat shock response, which in bacteria inhibits the heat shock sigma factor sigma 32.",0
50,"the class includes asia form bacteriophage t4, which inhibits escherichia coli sigma 70; flgm, present in both gram-positive and gram-negative bacteria, which inhibits the flagella sigma factor sigma 28; spoiiab, which inhibits the sporulation-specific sigma factor, sigma f and sigma g, of bacillus subtilis; rbsw of b. subtilis, which inhibits stress response sigma factor sigma b; and dnak, a general regulator of the heat shock response, which in bacteria inhibits the heat shock sigma factor sigma 32.",0
51,"the class includes asia form bacteriophage t4, which inhibits escherichia coli sigma 70; flgm, present in both gram-positive and gram-negative bacteria, which inhibits the flagella sigma factor sigma 28; spoiiab, which inhibits the sporulation-specific sigma factor, sigma f and sigma g, of bacillus subtilis; rbsw of b. subtilis, which inhibits stress response sigma factor sigma b; and dnak, a general regulator of the heat shock response, which in bacteria inhibits the heat shock sigma factor sigma 32.",0
52,"the sigma w regulon includes a penicillin binding protein (pbp4*) and a co-transcribed amino acid racemase (racx), homologues of signal peptide peptidase (ytei), flotillin (yuag), abc transporters (yknxyz), non-haem bromoperoxidase (ydjp), epoxide hydrolase (yfhm) and three small peptides with structural similarities to bacteriocin precursor polypeptides.",0
53,"the sigma w regulon includes a penicillin binding protein (pbp4*) and a co-transcribed amino acid racemase (racx), homologues of signal peptide peptidase (ytei), flotillin (yuag), abc transporters (yknxyz), non-haem bromoperoxidase (ydjp), epoxide hydrolase (yfhm) and three small peptides with structural similarities to bacteriocin precursor polypeptides.",0
54,"the sigma w regulon includes a penicillin binding protein (pbp4*) and a co-transcribed amino acid racemase (racx), homologues of signal peptide peptidase (ytei), flotillin (yuag), abc transporters (yknxyz), non-haem bromoperoxidase (ydjp), epoxide hydrolase (yfhm) and three small peptides with structural similarities to bacteriocin precursor polypeptides.",0
55,"the sigma w regulon includes a penicillin binding protein (pbp4*) and a co-transcribed amino acid racemase (racx), homologues of signal peptide peptidase (ytei), flotillin (yuag), abc transporters (yknxyz), non-haem bromoperoxidase (ydjp), epoxide hydrolase (yfhm) and three small peptides with structural similarities to bacteriocin precursor polypeptides.",0
56,"the sigma w regulon includes a penicillin binding protein (pbp4*) and a co-transcribed amino acid racemase (racx), homologues of signal peptide peptidase (ytei), flotillin (yuag), abc transporters (yknxyz), non-haem bromoperoxidase (ydjp), epoxide hydrolase (yfhm) and three small peptides with structural similarities to bacteriocin precursor polypeptides.",0
57,"the sigma w regulon includes a penicillin binding protein (pbp4*) and a co-transcribed amino acid racemase (racx), homologues of signal peptide peptidase (ytei), flotillin (yuag), abc transporters (yknxyz), non-haem bromoperoxidase (ydjp), epoxide hydrolase (yfhm) and three small peptides with structural similarities to bacteriocin precursor polypeptides.",0
58,"the sigma w regulon includes a penicillin binding protein (pbp4*) and a co-transcribed amino acid racemase (racx), homologues of signal peptide peptidase (ytei), flotillin (yuag), abc transporters (yknxyz), non-haem bromoperoxidase (ydjp), epoxide hydrolase (yfhm) and three small peptides with structural similarities to bacteriocin precursor polypeptides.",0
59,"the sigma w regulon includes a penicillin binding protein (pbp4*) and a co-transcribed amino acid racemase (racx), homologues of signal peptide peptidase (ytei), flotillin (yuag), abc transporters (yknxyz), non-haem bromoperoxidase (ydjp), epoxide hydrolase (yfhm) and three small peptides with structural similarities to bacteriocin precursor polypeptides.",0
60,"the sigma w regulon includes a penicillin binding protein (pbp4*) and a co-transcribed amino acid racemase (racx), homologues of signal peptide peptidase (ytei), flotillin (yuag), abc transporters (yknxyz), non-haem bromoperoxidase (ydjp), epoxide hydrolase (yfhm) and three small peptides with structural similarities to bacteriocin precursor polypeptides.",0
61,"the sigma w regulon includes a penicillin binding protein (pbp4*) and a co-transcribed amino acid racemase (racx), homologues of signal peptide peptidase (ytei), flotillin (yuag), abc transporters (yknxyz), non-haem bromoperoxidase (ydjp), epoxide hydrolase (yfhm) and three small peptides with structural similarities to bacteriocin precursor polypeptides.",0
62,"the sigma w regulon includes a penicillin binding protein (pbp4*) and a co-transcribed amino acid racemase (racx), homologues of signal peptide peptidase (ytei), flotillin (yuag), abc transporters (yknxyz), non-haem bromoperoxidase (ydjp), epoxide hydrolase (yfhm) and three small peptides with structural similarities to bacteriocin precursor polypeptides.",0
63,"the sigma w regulon includes a penicillin binding protein (pbp4*) and a co-transcribed amino acid racemase (racx), homologues of signal peptide peptidase (ytei), flotillin (yuag), abc transporters (yknxyz), non-haem bromoperoxidase (ydjp), epoxide hydrolase (yfhm) and three small peptides with structural similarities to bacteriocin precursor polypeptides.",0
64,"the sigma w regulon includes a penicillin binding protein (pbp4*) and a co-transcribed amino acid racemase (racx), homologues of signal peptide peptidase (ytei), flotillin (yuag), abc transporters (yknxyz), non-haem bromoperoxidase (ydjp), epoxide hydrolase (yfhm) and three small peptides with structural similarities to bacteriocin precursor polypeptides.",0
65,"the sigma w regulon includes a penicillin binding protein (pbp4*) and a co-transcribed amino acid racemase (racx), homologues of signal peptide peptidase (ytei), flotillin (yuag), abc transporters (yknxyz), non-haem bromoperoxidase (ydjp), epoxide hydrolase (yfhm) and three small peptides with structural similarities to bacteriocin precursor polypeptides.",0
66,"the sigma w regulon includes a penicillin binding protein (pbp4*) and a co-transcribed amino acid racemase (racx), homologues of signal peptide peptidase (ytei), flotillin (yuag), abc transporters (yknxyz), non-haem bromoperoxidase (ydjp), epoxide hydrolase (yfhm) and three small peptides with structural similarities to bacteriocin precursor polypeptides.",0
67,"the sigma w regulon includes a penicillin binding protein (pbp4*) and a co-transcribed amino acid racemase (racx), homologues of signal peptide peptidase (ytei), flotillin (yuag), abc transporters (yknxyz), non-haem bromoperoxidase (ydjp), epoxide hydrolase (yfhm) and three small peptides with structural similarities to bacteriocin precursor polypeptides.",0
68,"the sigma w regulon includes a penicillin binding protein (pbp4*) and a co-transcribed amino acid racemase (racx), homologues of signal peptide peptidase (ytei), flotillin (yuag), abc transporters (yknxyz), non-haem bromoperoxidase (ydjp), epoxide hydrolase (yfhm) and three small peptides with structural similarities to bacteriocin precursor polypeptides.",0
69,"the sigma w regulon includes a penicillin binding protein (pbp4*) and a co-transcribed amino acid racemase (racx), homologues of signal peptide peptidase (ytei), flotillin (yuag), abc transporters (yknxyz), non-haem bromoperoxidase (ydjp), epoxide hydrolase (yfhm) and three small peptides with structural similarities to bacteriocin precursor polypeptides.",0
70,"the sigma w regulon includes a penicillin binding protein (pbp4*) and a co-transcribed amino acid racemase (racx), homologues of signal peptide peptidase (ytei), flotillin (yuag), abc transporters (yknxyz), non-haem bromoperoxidase (ydjp), epoxide hydrolase (yfhm) and three small peptides with structural similarities to bacteriocin precursor polypeptides.",0
71,"the sigma w regulon includes a penicillin binding protein (pbp4*) and a co-transcribed amino acid racemase (racx), homologues of signal peptide peptidase (ytei), flotillin (yuag), abc transporters (yknxyz), non-haem bromoperoxidase (ydjp), epoxide hydrolase (yfhm) and three small peptides with structural similarities to bacteriocin precursor polypeptides.",0
72,"the sigma w regulon includes a penicillin binding protein (pbp4*) and a co-transcribed amino acid racemase (racx), homologues of signal peptide peptidase (ytei), flotillin (yuag), abc transporters (yknxyz), non-haem bromoperoxidase (ydjp), epoxide hydrolase (yfhm) and three small peptides with structural similarities to bacteriocin precursor polypeptides.",0
73,"the sigma w regulon includes a penicillin binding protein (pbp4*) and a co-transcribed amino acid racemase (racx), homologues of signal peptide peptidase (ytei), flotillin (yuag), abc transporters (yknxyz), non-haem bromoperoxidase (ydjp), epoxide hydrolase (yfhm) and three small peptides with structural similarities to bacteriocin precursor polypeptides.",0
74,"the sigma w regulon includes a penicillin binding protein (pbp4*) and a co-transcribed amino acid racemase (racx), homologues of signal peptide peptidase (ytei), flotillin (yuag), abc transporters (yknxyz), non-haem bromoperoxidase (ydjp), epoxide hydrolase (yfhm) and three small peptides with structural similarities to bacteriocin precursor polypeptides.",0
75,"the sigma w regulon includes a penicillin binding protein (pbp4*) and a co-transcribed amino acid racemase (racx), homologues of signal peptide peptidase (ytei), flotillin (yuag), abc transporters (yknxyz), non-haem bromoperoxidase (ydjp), epoxide hydrolase (yfhm) and three small peptides with structural similarities to bacteriocin precursor polypeptides.",0
76,"the sigma w regulon includes a penicillin binding protein (pbp4*) and a co-transcribed amino acid racemase (racx), homologues of signal peptide peptidase (ytei), flotillin (yuag), abc transporters (yknxyz), non-haem bromoperoxidase (ydjp), epoxide hydrolase (yfhm) and three small peptides with structural similarities to bacteriocin precursor polypeptides.",0
77,"the sigma w regulon includes a penicillin binding protein (pbp4*) and a co-transcribed amino acid racemase (racx), homologues of signal peptide peptidase (ytei), flotillin (yuag), abc transporters (yknxyz), non-haem bromoperoxidase (ydjp), epoxide hydrolase (yfhm) and three small peptides with structural similarities to bacteriocin precursor polypeptides.",0
78,"the sigma w regulon includes a penicillin binding protein (pbp4*) and a co-transcribed amino acid racemase (racx), homologues of signal peptide peptidase (ytei), flotillin (yuag), abc transporters (yknxyz), non-haem bromoperoxidase (ydjp), epoxide hydrolase (yfhm) and three small peptides with structural similarities to bacteriocin precursor polypeptides.",0
79,"the sigma w regulon includes a penicillin binding protein (pbp4*) and a co-transcribed amino acid racemase (racx), homologues of signal peptide peptidase (ytei), flotillin (yuag), abc transporters (yknxyz), non-haem bromoperoxidase (ydjp), epoxide hydrolase (yfhm) and three small peptides with structural similarities to bacteriocin precursor polypeptides.",0
