pro1_pdb,pro1_tamano,pro2_pdb,pro2_tamano
pares_proteinas.csv,7,1RCX.pdb,40824
pares_proteinas.csv,7,8RUC.pdb,21498
pares_proteinas.csv,7,1BE2.pdb,14162
pares_proteinas.csv,7,7CI2.pdb,5937
1RCX.pdb,40824,8RUC.pdb,21498
1RCX.pdb,40824,1BE2.pdb,14162
1RCX.pdb,40824,7CI2.pdb,5937
8RUC.pdb,21498,1BE2.pdb,14162
8RUC.pdb,21498,7CI2.pdb,5937
1BE2.pdb,14162,7CI2.pdb,5937
