pro1_pdb,pro1_tamano,pro2_pdb,pro2_tamano
1ILR.pdb,2780,1ANI.pdb,7605
1ILR.pdb,2780,7KNT.pdb,4283
1ILR.pdb,2780,5Y9A.pdb,3986
1ILR.pdb,2780,1B9P.pdb,751
1ANI.pdb,7605,7KNT.pdb,4283
1ANI.pdb,7605,5Y9A.pdb,3986
1ANI.pdb,7605,1B9P.pdb,751
7KNT.pdb,4283,5Y9A.pdb,3986
7KNT.pdb,4283,1B9P.pdb,751
5Y9A.pdb,3986,1B9P.pdb,751
