Index,Abstract
7947384,"The c-erbA alpha protooncogene coding for the thyroid hormone (T3) receptor (TR alpha 1) and the viral, mutated v-erbA oncogene were expressed in an immortal mouse glial cell line (B3.1) using retroviral vectors. c-erbA alpha expression led to a decrease in cell proliferation in high and low serum conditions, both in the presence and in the absence of T3. In serum-free medium, c-erbA-expressing cells (B3.1 + TR alpha 1) were completely arrested, whereas cells expressing v-erbA (B3.1 + v-erbA) showed a higher DNA synthesis rate than normal B3.1 cells. Although proliferation of all three cell types was stimulated by platelet-derived growth factor and basic fibroblast growth factor, differences were also observed in the response to these agents. B3.1 + TR alpha 1 cells were more sensitive to platelet-derived growth factor than B3.1 and B3.1 + v-erbA cells. In contrast, B3.1 cells responded to basic fibroblast growth factor better than B3.1 + TR alpha 1 or B3.1 + v-erbA cells. Insulin-like growth factor I potentiated the action of platelet-derived growth factor and basic fibroblast growth factor. Again, different responses to treatment with insulin-like growth factor I alone were observed; B3.1 + TR alpha 1 cells did not respond to it, whereas B3.1 + v-erbA cells showed a dramatic stimulation by this agent. Interestingly, in the presence of T3, the blockade in B3.1 + TR alpha 1 cell proliferation was accompanied by the down-regulation of the typical astrocytic genes, glial fibrillary acidic protein and vimentin. These hormone effects were not found in v-erbA-expressing cells. In addition, v-erbA inhibited the basal expression of the cyclic nucleotide phosphodiesterase gene, an oligodendrocytic marker.(ABSTRACT TRUNCATED AT 250 WORDS)"
9529327,"The mechanism by which HIV-1 induces CD4(+) T cell death is not known. A fundamental issue is whether HIV-1 primarily induces direct killing of infected cells or indirectly causes death of uninfected bystander cells. This question was studied using a reporter virus system in which infected cells are marked with the cell surface protein placental alkaline phosphatase (PLAP). Infection by HIV-PLAP of peripheral blood mononuclear cells (PBMCs) and T cell lines leads to rapid depletion of CD4(+) T cells and induction of apoptosis. The great majority of HIV-induced T cell death in vitro involves direct loss of infected cells rather than indirect effects on uninfected bystander cells. Because of its proposed role in HIV-induced cell death, we also examined the Fas (CD95/Apo1) pathway in killing of T cells by HIV-1. Infected PBMCs or CEM cells display no increase in surface Fas relative to uninfected cells. In addition, HIV-1 kills CEM and Jurkat T cells in the presence of a caspase inhibitor that completely blocks Fas-mediated apoptosis. HIV-1 also depletes CD4+ T cells in PBMCs from patients who have a genetically defective Fas pathway. These results suggest that HIV-1 induces direct apoptosis of infected cells and kills T cells by a Fas-independent mechanism."
18815308,"Infection of mice with pneumonia virus of mice (PVM) is used as a natural host experimental model for studying the pathogenesis of infection with the closely related human respiratory syncytial virus. We analyzed the contribution of T cells to virus control and pathology after PVM infection. Control of a sublethal infection with PVM strain 15 in C57BL/6 mice was accompanied by a 100-fold increase in pulmonary cytotoxic T lymphocytes, 20% of which were specific for PVM. T-cell-deficient mice failed to eliminate PVM and became virus carriers in the absence of the clinical or histopathological signs of pneumonia that occurred after infection of control mice. Mice with limited T-cell numbers did not achieve virus control without weight loss, indicating that T-cell-mediated virus control was closely linked to immunopathology. Both CD4 and CD8 T cells independently contributed to virus elimination and disease. Virus control and disease were similar in the absence of perforin, gamma interferon, or tumor necrosis factor alpha. Interestingly, disease and mortality after lethal high-dose PVM infection were independent of T cells. These data illustrate a key role for T cells in control of PVM infection and demonstrate that both T-cell-dependent and -independent pathways contribute to disease in a viral dose-dependent fashion."
25123411,"The application of fluorescently-labeled antibodies for flow cytometric identification and characterization of specific cell types within heterogeneous populations by their protein expression profile is well established. While detection of proteins is informative, concomitant transcript analysis in the same cells would provide a more complete and comprehensive view of intracellular signaling events. We recently reported on the efficient detection of RNA in suspension cells for flow cytometric analysis. The improved RNA flow cytometry procedure described here allows for the specific labeling of multiple RNA species, and is compatible with antibody-based targeting of extracellular and intracellular antigens for multiplexing purposes. To show proof of concept, human peripheral blood mononuclear cells were stimulated with phorbol 12-myristate 13-acetate and ionomycin for a maximum of 5 h, during which their CD4 and interferon-gamma (IFN-) transcript and protein levels were monitored. Substantial and increasing numbers of IFN- mRNA+ cells were detected within 30 min after initiation of induction, while IFN- protein+ cells could only be discerned at 1 h and beyond. Surprisingly, resting lymphocytes contained less CD4 mRNA but more of the protein per cell compared with monocytes, revealing a difference in the relationship of transcript and protein levels in these two cell types. We additionally applied monensin, which is commonly used to block cytokine secretion, and found that IFN- mRNA can still be analyzed consistently using the improved RNA flow cytometry staining method. Notably, a subset of IFN- mRNA(-)/protein+ cells that were not observed in the absence of monensin became apparent at the 5-h mark. This subset probably represents cells that have accumulated IFN- protein, but no longer transcribe mRNA. Collectively, the results described here exemplify how the improved RNA flow cytometry labeling procedure can be applied to simultaneously assess mRNA and protein dynamics to gain insight into the regulation of gene transcription and translation in individual cells."
23818545,"Understanding the heterogeneity of human CD4+FOXP3+ regulatory T cells (Tregs) and their potential for lineage reprogramming is of critical importance for moving Treg therapy into the clinics. Using multiparameter single-cell analysis techniques, we explored the heterogeneity and functional diversity of human Tregs in healthy donors and in patients after allogeneic hematopoietic stem cell transplantation (alloHSCT). Human Tregs displayed a level of complexity similar to conventional CD4+ effector T cells with respect to the expression of transcription factors, homing receptors and inflammatory cytokines. Single-cell profiling of the rare Treg producing interleukin-17A or interferon- showed an overlap of gene expression signatures of Th17 or Th1 cells and of Tregs. To assess whether Treg homeostasis is affected by an inflammatory and lymphopenic environment, we characterized the Treg compartment in patients early after alloHSCT. This analysis suggested a marked depletion of Treg with a naive phenotype in patients developing acute graft-versus-host disease, compared with tolerant patients. However, single-cell profiling showed that CD4+FOXP3+ T cells maintain the Treg gene expression signature and Treg-suppressive activity was preserved. Our study establishes that heterogeneity at the single-cell level, rather than lineage reprogramming of CD4+FOXP3+ T cells, explains the remarkable complexity and functional diversity of human Tregs."
11864781,"There is evidence suggesting that patients infected with human immunodeficiency virus (HIV) are under chronic oxidative stress. In the present study, the level of oxidatively modified bases in lymphocyte DNA and some other parameters of oxidative stress were measured in HIV-infected patients (n = 30), as well as in control groups (10 healthy volunteers and 15 HIV-seronegative injected drug users). Additional experiments were conducted using lymphocyte DNA samples from asymptomatic seropositive, HIV-infected patients who were supplemented with antioxidant vitamins A, C, and E or received placebo. Significant increases in the amount of the modified DNA bases were observed in HIV-infected patients when compared with the control group. The concentration of thiobarbituric acid reactive substances (TBARS) was higher and activities of antioxidant enzymes (superoxide dismutase and catalase) were lower in the group of HIV-infected patients in comparison to the control group. Vitamin supplementation resulted in the significant decrease in the levels of all modified DNA bases when compared to the patients who received placebo. The reduction of TBARS and the restoration of the activity of the enzymes were also observed. Our data suggest that people infected with HIV can benefit from treatment with antioxidant vitamins."
23348026,"Type 1 diabetes (T1D) is an autoimmune disease for which there is no cure. The pancreatic beta cells are the source of insulin that keeps blood glucose normal. When susceptible individuals develop T1D, their beta cells are destroyed by autoimmune T lymphocytes and no longer produce insulin. T1D patients therefore depend on daily insulin injections for survival. Gene therapy in T1D aims at the induction of new islets to replace those that have been destroyed by autoimmunity. A major goal of T1D research is to restore functional beta cell mass while eliminating diabetogenic T cells in the hope of achieving insulin independence. Multiple therapeutic strategies for the generation of new beta cells have been under intense investigations. However, newly formed beta cells would be immediately destroyed by diabetogenic T cells. Therefore, successful islet induction therapy must be supported by potent immunotherapy that will protect the newly formed beta cells. Herein, we will summarize the current information on immunotherapies that aim at modifying T cell response to beta cells. We will first outline the immune mechanisms that underlie T1D development and progression and review the scientific background and rationale for specific modes of immunotherapy. Numerous clinical trials using antigen-specific strategies and immune-modifying drugs have been published, though most have proved too toxic or have failed to provide long-term beta cell protection. To develop an effective immunotherapy, there must be a continued effort on defining the molecular basis that underlies T cell response to pancreatic islet antigens in T1D."
21846488,"It is known that bone morphogenetic proteins (BMPs) regulate gonadotropin transcription and production by pituitary gonadotrope cells. However, the role of BMPs in gonadotropin-releasing hormone (GnRH)-induced FSH production remains uncertain. Here, we describe a functional link between BMP-6 and BMP-7 signals and FSH transcriptional activity induced by GnRH using mouse gonadotrope LT2 cells. In LT2 cells, BMP-6 and BMP-7 increased mouse FSH-promoter activity in a concentration-dependent manner. The induction by BMP-6 and BMP-7 was inhibited by treatment with extracellular domains of ActRII but not BMPRII. These findings suggest that the type II receptor ActRII participates in BMP-induced FSH transcription regulation. Notably, BMP-6, but not BMP-7, enhanced GnRH-induced FSH-promoter activity in LT2 cells. Since GnRH stimulated MAPK phosphorylation in LT2 cells, a functional link between MAPK and FSH transcription was examined. Inhibition of the ERK pathway, but not that of p38 or SAPK/JNK signaling, suppressed GnRH-induced FSH transcription, suggesting that ERK is functionally involved in GnRH-induced FSH transcription. Co-treatment with BMP-7, but not with BMP-6, suppressed GnRH-induced MAPK phosphorylation in LT2 cells. Thus, the difference between BMP-6 and BMP-7 in enhancing GnRH-induced FSH transcription may be due to the differential effects of BMP ligands on GnRH-induced ERK signaling. On the other hand, GnRH reduced Smad1/5/8 phosphorylation but increased Smad6/7 expression. These findings imply the presence of a functional link between GnRH action, MAPK signaling and the BMP system in pituitary gonadotropes for fine-tuning of FSH gene expression."
31868237,"Transcription networks and epigenetic mechanisms including DNA methylation, histone modifications, and noncoding RNAs control lineage commitment of multipotent mesenchymal progenitor cells. Proteins that read, write, and erase histone tail modifications curate and interpret the highly intricate histone code. Epigenetic reader proteins that recognize and bind histone marks provide a crucial link between histone modifications and their downstream biological effects. Here, we investigate the role of bromodomain-containing (BRD) proteins, which recognize acetylated histones, during osteogenic differentiation. Using RNA-sequencing (RNA-seq) analysis, we screened for BRD proteins (n=40) that are robustly expressed in MC3T3 osteoblasts. We focused functional follow-up studies on Brd2 and Brd4 which are highly expressed in MC3T3 preosteoblasts and represent ""bromodomain and extra terminal domain"" (BET) proteins that are sensitive to pharmacological agents (BET inhibitors). We show that small interfering RNA depletion of Brd4 has stronger inhibitory effects on osteoblast differentiation than Brd2 loss as measured by osteoblast-related gene expression, extracellular matrix deposition, and alkaline phosphatase activity. Similar effects on osteoblast differentiation are seen with the BET inhibitor +JQ1, and this effect is reversible upon its removal indicating that this small molecule has no lasting effects on the differentiation capacity of MC3T3 cells. Mechanistically, we find that Brd4 binds at known Runx2 binding sites in promoters of bone-related genes. Collectively, these findings suggest that Brd4 is recruited to osteoblast-specific genes and may cooperate with bone-related transcription factors to promote osteoblast lineage commitment and maturation."
8183882,"Human diploid fibroblast cells lose replicative potential after a certain number of population doublings. We use this experimental system to investigate the role of oxidative damage in cellular aging. Treating cells with H2O2 at < 300 microM did not affect the viability of the majority of cells when judged by morphology, trypan blue exclusion, and protein synthesis. However, the treatment caused a dose-dependent inhibition of DNA synthesis. After a 2-hr treatment with 200 microM H2O2, the cells failed to respond to a stimulus of serum, platelet-derived growth factor, basic fibroblast growth factor, or epidermal growth factor by synthesizing DNA, and the loss of response could not be recovered by 4 days. Subcultivation showed that, as in senescent cells, division of the treated cells was inhibited. The life-time cumulative growth curve showed that the loss of replication due to H2O2 treatment was cumulative and irreversible. The H2O2 treatment decreased the number of the population doublings in the rest of the life span by 35.3 +/- 10.3%. Enzymatic assays indicated that, like the cells in their senescent state, the treated cells were less able to activate ornithine decarboxylase and thymidine kinase. Furthermore, subcultivation after the H2O2 treatment showed that the cells developed the morphology of senescent cells. In conclusion, sublethal treatment of H2O2 ""stunned"" F65 cells and caused the cells to enter a state resembling senescence."
19158348,"Viral RNA or bacterial products can activate glomerular mesangial cells via a subset of Toll-like receptors (Tlr). Because Tlr2-deficient mice were recently found to have attenuated nephrotoxic serum nephritis (NSN), we hypothesized that endogenous Tlr agonists can activate glomerular mesangial cells. Primary mesangial cells from C57BL/6 mice expressed Tlr1-6 and Tlr11 mRNA at considerable levels and produced Il-6 when being exposed to the respective Tlr ligands. Exposure to necrotic cells activated cultured primary mesangial cells to produce Il-6 in a Tlr2/Myd88-dependent manner. Apoptotic cells activated cultured mesangial cells only when being enriched to high numbers. Apoptotic cell-induced Il-6 release was Myd88 dependent, and only purified apoptotic cell RNA induced Trif signaling in mesangial cells. Does Trif signaling contribute to disease activity in glomerulonephritis? To answer this question, we induced autologous NSN by injection of NS raised in rabbits in Trif-mutant and wild-type mice. Lack of Trif did not alter the functional and histomorphological abnormalities of NSN, including the evolution of anti-rabbit IgG and anti-rabbit-specific nephritogenic T cells. We therefore conclude that apoptotic cell RNA is a poor activator of Trif signaling in mesangial cells and that necrotic cells' releases rather activate mesangial cells via the Tlr2/Myd88 signaling pathway."
10544109,"Hepatitis B, C, and D viruses can infect liver cells and in some individuals establish a chronic phase of infection. Presently, relatively little information is available on the antiviral mechanisms in liver cells. Because no good in vitro model infection systems for hepatitis viruses are available, we have used influenza A, Sendai, and vesicular stomatitis (VSV) viruses to characterize interferon (IFN) responses and IFN-induced antiviral mechanisms in human hepatoma cell lines. HepG2 or HuH7 cells did not show any detectable IFN-alpha/beta production in response to influenza A or Sendai virus infections. Treatment of cells with IFN-alpha resulted in upregulation of IFN-alpha-inducible Mx, 2',5'-oligoadenylate synthetase (OAS) and HLA class I gene expression but only with exceptionally high levels of IFN-alpha (>/=100 IU/ml). Accordingly, high pretreatment levels of IFN-alpha, 1000 IU/ml for influenza A and VSV and 100 IU/ml for Sendai virus, were required before any detectable antiviral activity against these viruses was seen. IFN-gamma had some antiviral effect against influenza A virus but appeared to be ineffective against VSV and Sendai virus. IFN-gamma upregulated HLA class I protein expression, whereas Mx or OAS expression levels were not increased. There was a modest upregulation of HLA class I expression during Sendai virus infection, whereas influenza A virus infection resulted, after an initial weak upregulation, in a clear decrease in HLA class I expression at late times of infection. The results suggest that hepatoma cells may have intrinsically poor ability to produce and respond to type I IFNs, which may contribute to their inability to efficiently resist viral infections."
20062933,"The LIM-homeobox transcription factor islet-1 (Isl1) marks a cell population which gives rise to myocardial, pacemaker, endothelial and smooth muscle cells, which are derived from the secondary heart field during heart embryogenesis. Isl1+ precursors have the potential of self-renewal and differentiation into endothelial, cardiomyocyte and smooth muscle lineages. The primary objective of this study was to determine whether retroviral gene delivery of Isl1 to endothelial cells and mesenchymal stem cells (MSCs) could promote angiogenic and vasculogenic properties. To this end, endothelial cells and rat MSCs were retrovirally transduced to express Isl1. Isl1 expression in endothelial cells resulted in enhanced proliferation and adhesion to fibronectin. In addition, increased IL-1b and VEGF secretion was evident in Isl1 transduced endothelial cells, concomitant with increased migratory and tube formation properties of the endothelial cells. Isl1 expression in MSCs promoted their vasculogenic properties and resulted in enhanced in vitro tube formation. Finally, Isl1 expressing endothelial cells induced enhanced in vivo vascularisation in C57BL/6J mice. These data suggest, for the first time, that Isl1 promotes postnatal angiogenesis and vasculogenesis by improving the angiogenic properties of endothelial cells and MSCs."
12819380,"The regional distribution and relative frequency of some endocrine cells in the pancreas of the carp, Cyprinus carpio Linnaeus, belonging to the family Cyprinidae in the order Cypriniformes, were observed using specific mammalian antisera against insulin, glucagon, somatostatin and human pancreatic polypeptide (hPP) by peroxidase antiperoxidase (PAP) method. The pancreas was divided into four regions (principal and secondary islets, exocrine and pancreatic duct regions). In addition, the pancreatic islet regions were further subdivided into three regions (central, mantle and peripheral regions) and the pancreatic duct regions were subdivided into two regions (epithelial and subepithelial regions). Spherical to spindle or occasionally round to oval shaped immunoreactive (IR) cells were demonstrated in the pancreatic islets, exocrine and pancreatic duct. In the principal islet regions, some cells were also detected in the other regions, most of insulin- and somatostatin-IR cells were located in the central regions, and glucagon- and hPP-IR cells were situated in the peripheral regions. In this regions, insulin-IR cells were most predominant cell types and then, glucagon, somatostatin and hPP in that order. In the secondary islet regions, the regional distribution and relative frequency of these four types of endocrine cells were quite similar to those of the principal islets except for cell clusters consisted of hPP-IR cells that were situated in the peripheral to mantle regions. In the pancreatic duct regions, all four major pancreatic endocrine cells were demonstrated in the inter-epithelial cells and/or basal regions of the epithelial linning. In addition, cell clusters composed of numerous insulin-, moderate glucagon- and somatostatin-IR cells of low frequency were also observed in the subepithelial regions of the pancreatic duct. In the exocrine regions, insulin-, glucagon-, somatostatin- and hPP-IR cells were located in the inter-acinus regions with rare, a few, moderate and moderate frequencies, respectively. In conclusion, the regional distribution and relative frequency of four major pancreatic endocrine cells, insulin-, glucagon-, somatostatin- and hPP-IR cells, in the pancreas of the carp showed general patterns which were observed in other stomachless teleost. However, some species- dependent different distributional patterns and/or relative frequencies were also demonstrated."
24037042,"The hemagglutinin-neuraminidase (HN) of Newcastle disease virus (NDV) is a multifunctional protein that has receptor recognition, neuraminidase, and fusion promotion activities. Sequence analysis revealed that the HN gene of many extremely low virulence NDV strains encodes a larger open-reading frame (616 amino acids, aa) with additional 45 aa at its C-terminus when compared with that (571 aa) of virulent NDV strains. Therefore, it has been suspected that the 45 aa extension at the C-terminus of the HN may affect the NDV virulence. In this study, we generated an NDV mesogenic strain Anhinga-based recombinant virus with an HN C-terminal extension of 45 aa (rAnh-HN-ex virus) using reverse genetics technology. The biological characterization of the recombinant virus showed that the rAnh-HN-ex virus had similar growth ability to its parental virus rAnh-wt both in embryonating chicken eggs and DF-1 cells. However, the pathogenicity of this recombinant virus in embryonating chicken eggs and day-old chickens decreased, as evidenced by a longer mean death time and lower intracerebral pathogenicity index when compared with the parental virus. This is consistent with our previous finding that the recombinant LaSota virus with a 45-aa extension at its HN C-terminal was attenuated in chickens and embryonating eggs. These results suggest that the HN protein C-terminal extension may contribute to the reduced virulence in some low virulence NDV strains. "
7519169,"The release of interleukin-8 (IL-8), interleukin-6 (IL-6) and the soluble forms of the tumour necrosis factor receptor (sTNF-R) from human pulmonary type II-like epithelial cells (A549) after respiratory syncytial virus (RSV) infection was analysed. RSV infection alone induced a time- and RSV dose-dependent IL-8 and IL-6 release from A549 cells. Furthermore, the soluble form of the TNF-RI was also secreted in a time- and RSV dose-dependent fashion. The soluble TNF-RII was not detected in the cell supernatant of infected epithelial cells. The effect of various cytokines [IL-1 alpha/beta, TNF-alpha/beta, IL-3, IL-6, interferon-gamma (IFN-gamma), transforming growth factor-beta 2 (TGF-beta 2)] and colony-stimulating factors [granulocyte (G)-CSF; granulocyte-macrophage (GM)-CSF] on the IL-8 release from A549 cells was also studied. Our data show that the proinflammatory cytokines IL-1 alpha/beta and TNF-alpha/beta induced an IL-8 release in non-infected A549 cells, and increased the IL-8 release of RSV-infected A549 cells synergistically. In addition, IL-3, G-CSF, IFN-gamma and TGF-beta 2, albeit at high concentrations, induced a low IL-8 release from non-infected A549 cells. The enhanced IL-8 secretion rates were accompanied with elevated cytoplasmic IL-8 mRNA steady state levels, as was shown by Northern blot analysis. Cellular co-culture experiments performed with A549 cells and polymorphonuclear granulocytes or peripheral blood mononuclear cells revealed that increased IL-8 amounts were secreted in the co-culture of non-infected as well as RSV-infected cells. The present study suggests a central role for the airway epithelium during RSV infection with regard to cytokine and cytokine receptor release, resulting in a recruitment and activation of inflammatory and immune effector cells. Our data also suggest that paracrine cytokine networks and cell-cell contact are involved in the regulation of IL-8 secretion within the microenvironment of the bronchial epithelium."
17509524,"Insulin-like growth factors (IGF), polypeptides that regulate growth, differentiation, and survival in cells and tissues, were found to enhance gene expression from both heterologous and homologous promoters in the presence of constitutively active STAT5. This highly conserved 700-bp DNA region contains two closely located consensus STAT5-binding sites. Hypoxia regulates the IGF-1 gene expression through the STAT5b. We confirmed STAT5b is up-regulated under hypoxic conditions, and the increased STAT5b binds strongly to the STAT5-binding sites 1 and 2 contained within the distal 5'-flanking region of IGF-1 gene in HepG2 cells. EMSA studies showed that STAT5-binding activities to the IGF-1 promoter distinctly increased under hypoxia in STAT5b-transfected COS-7 cells. The IGF-1 gene expression was also increased by hypoxia in HepG2 cells. STAT5b expression was inhibited by siRNA experiments leading to decreased IGF-1. These results provide a basis of molecular targets for cancer treatment via the STAT5b-IGF-1 pathway in solid tumor cells."
20600474,"Reverse genetics can be used to produce recombinant influenza A viruses containing virtually every desired combination of hemagglutinin (HA) and neuraminidase (NA) genes using the virus backbone of choice. Here, a repository of plasmids and recombinant viruses representing all contemporary Eurasian HA and NA subtypes, H1-H16 and N1-N9, was established. HA and NA genes were selected based on sequence analyses of influenza virus genes available from public databases. Prototype Eurasian HA and NA genes were cloned in bidirectional reverse genetics plasmids. Recombinant viruses based on the virus backbone of A/PR/8/34, and containing a variety of HA and NA genes were produced in 293T cells. Virus stocks were produced in MDCK cells and embryonated chicken eggs. These plasmids and viruses may be useful for numerous purposes, including influenza virus research projects, vaccination studies, and to serve as reference reagents in diagnostic settings."
26404790,"Pigs are natural hosts for the same influenza virus subtypes as humans and are a valuable model for cross-protection studies with influenza. In this study, we have used the pig model to examine the extent of virological protection between a) the 2009 pandemic H1N1 (pH1N1) virus and three different European H1 swine influenza virus (SIV) lineages, and b) these H1 viruses and a European H3N2 SIV. Pigs were inoculated intranasally with representative strains of each virus lineage with 6- and 17-week intervals between H1 inoculations and between H1 and H3 inoculations, respectively. Virus titers in nasal swabs and/or tissues of the respiratory tract were determined after each inoculation. There was substantial though differing cross-protection between pH1N1 and other H1 viruses, which was directly correlated with the relatedness in the viral hemagglutinin (HA) and neuraminidase (NA) proteins. Cross-protection against H3N2 was almost complete in pigs with immunity against H1N2, but was weak in H1N1/pH1N1-immune pigs. In conclusion, infection with a live, wild type influenza virus may offer substantial cross-lineage protection against viruses of the same HA and/or NA subtype. True heterosubtypic protection, in contrast, appears to be minimal in natural influenza virus hosts. We discuss our findings in the light of the zoonotic and pandemic risks of SIVs. "
23832668,"Knowledge of molecular and genetic mechanisms controlling wheat grain quality characteristics is significant for improving flour for end-product functionality. Flour b* colour is an important quality trait for breeding wheat varieties to produce grain for specific market requirements. The degree of flour yellowness is due to the accumulation of carotenoids in grain, particularly lutein. Flour b* is under polygenic control and quantitative trait loci (QTL) have frequently been reported on chromosome 7AL. Analysis of carotenoid genes showed that phytoene synthase (PSY) co-located to the QTL on 7AL but other genes at this locus are also thought to contribute flour b* colour variation. This study used the wheat genome survey sequence and identified the chromosomal location of all wheat carotenoid genes, but none other than PSY were located on 7AL and, therefore, other genes may control flour b* colour variation including oxidative genes that degrade carotenoids. An investigation of EST bin mapped to 7AL identified a gene encoding a catalase enzyme (Cat3-A1) that was phylogenetically related to other plant class III enzymes, co-located to the QTL for flour b* colour variation on 7AL in three mapping populations and expressed during seed development. Therefore, Cat3-A1 was functionally associated with flour b* colour variation. Catalase acts upon hydrogen peroxide as a substrate and it was postulated that Cat3-A1 alleles control varying degrees of bleaching action on lutein in developing wheat grain. Markers for Cat3-A1 developed in this study can be used in conjunction with other candidate gene markers including phytoene synthase and lycopene--cylase to develop a molecular signature for selecting lines with specific flour b* colour values in wheat breeding. "
26670246,"Recruitment of the matrix protein M1 to the assembly site of the influenza virus is thought to be mediated by interactions with the cytoplasmic tail of hemagglutinin (HA). Based on a comprehensive sequence comparison of all sequences present in the database, we analyzed the effect of mutating conserved residues in the cytosol-facing part of the transmembrane region and cytoplasmic tail of HA (A/WSN/33 (H1N1) strain) on virus replication and morphology of virions. Removal of the two cytoplasmic acylation sites and substitution of a neighboring isoleucine by glutamine prevented rescue of infectious virions. In contrast, a conservative exchange of the same isoleucine, non-conservative exchanges of glycine and glutamine, deletion of the acylation site at the end of the transmembrane region and shifting it into the tail did not affect virus morphology and had only subtle effects on virus growth and on the incorporation of M1 and Ribo-Nucleoprotein Particles (RNPs). Thus, assuming that essential amino acids are conserved between HA subtypes we suggest that, besides the two cytoplasmic acylation sites (including adjacent hydrophobic residues), no other amino acids in the cytoplasmic tail of HA are indispensable for virus assembly and budding. "
