Palabras,Intensidad
protein-protein,90
protein-interaction,90
chaperonin,90
high-affinity,90
two-domain,90
multiprotein,90
coreceptor,90
holoenzyme,90
heterocomplexe,90
ligand-activated,90
protein-associated,90
reassociation,90
protein-coupled,90
tata-binding,90
two-hybrid,90
peptide-binding,90
receptor-kinase,90
three-dimensional,90
receptor-clustering,90
protein-tyrosine,90
sds-stable,90
protein-serine,90
interaction,64
activation,64
ligand,64
association,64
addition,64
inhibitor,64
stimulation,64
antigen,64
substitution,64
expression,64
response,64
mediator,64
identification,64
agonist,64
change,64
process,64
component,64
connection,64
inhibitory,64
receptor,64
coactivator,64
correlation,64
induction,64
localization,64
susceptibility,64
regulation,64
inhibition,64
regulatory,64
suppressor,64
adhesion,64
competition,64
regulator,64
relative,64
transporter,64
suppression,64
dissociation,64
inducible,64
position,64
relation,64
stretch,64
function,64
characteristic,64
synergy,64
positive,64
pattern,64
distribution,64
transient,64
normal,64
complete,64
model,64
partial,64
lipoprotein,64
transiently,64
protease,64
stability,64
synergistic,64
synergistically,64
effective,64
efficiency,64
actin,37
chaperon,37
choose,37
reassociate,37
communicate,37
compose,37
exchange,37
ligation,37
extract,37
heteroprotein,37
intehraction,37
reaction,37
immobilize,37
peptide,37
separation,37
surface-labele,37
research,37
collection,37
fold,37
transduction,37
intermolecular,37
drug,37
refold,37
waal,37
interact,10
complex,10
associate,10
signal,10
affinity,10
mediate,10
inhibit,10
ability,10
regulate,10
compete,10
stimulate,10
detect,10
within,10
chain,10
activator,10
couple,10
similar,10
dependent,10
detectable,10
allow,10
mach,10
induce,10
inability,10
predict,10
reactivation,10
recover,10
transmit,10
twofold,10
contain,10
inactive,10
modulate,10
translocate,10
combine,10
competitive,10
correlate,10
facilitate,10
fusion,10
replace,10
transduce,10
homologue,10
intermediate,10
mainly,10
majority,10
activate,10
cooperate,10
drive,10
heterodimeric,10
inactivate,10
influence,10
modulation,10
obtain,10
permit,10
preferential,10
preferentially,10
resemble,10
select,10
contribute,10
direct,10
identical,10
measure,10
transcript,10
fragment,10
multiple,10
cluster,10
bind,10
peptidase,10
configuration,10
comparison,10
stable,10
generate,10
interference,10
probability,10
homolog,10
distantly,10
isolate,10
synthetase,10
threefold,10
